{
    "angles": [
        {
            "atom1": 1,
            "atom2": 2,
            "atom3": 3,
            "spring_constant": 74.24,
            "theta": 103.73
        },
        {
            "atom1": 1,
            "atom2": 5,
            "atom3": 4,
            "spring_constant": 68.16,
            "theta": 114.19
        },
        {
            "atom1": 1,
            "atom2": 5,
            "atom3": 9,
            "spring_constant": 64.66,
            "theta": 115.97
        },
        {
            "atom1": 1,
            "atom2": 30,
            "atom3": 31,
            "spring_constant": 65.99,
            "theta": 120.1
        },
        {
            "atom1": 1,
            "atom2": 30,
            "atom3": 35,
            "spring_constant": 65.99,
            "theta": 120.1
        },
        {
            "atom1": 2,
            "atom2": 1,
            "atom3": 5,
            "spring_constant": 71.15,
            "theta": 112.56
        },
        {
            "atom1": 2,
            "atom2": 1,
            "atom3": 30,
            "spring_constant": 67.84,
            "theta": 123.28
        },
        {
            "atom1": 2,
            "atom2": 3,
            "atom3": 4,
            "spring_constant": 70.18,
            "theta": 113.02
        },
        {
            "atom1": 2,
            "atom2": 3,
            "atom3": 10,
            "spring_constant": 65.74,
            "theta": 120.46
        },
        {
            "atom1": 3,
            "atom2": 4,
            "atom3": 5,
            "spring_constant": 72.91,
            "theta": 109.42
        },
        {
            "atom1": 3,
            "atom2": 4,
            "atom3": 6,
            "spring_constant": 65.67,
            "theta": 122.14
        },
        {
            "atom1": 3,
            "atom2": 10,
            "atom3": 11,
            "spring_constant": 65.73,
            "theta": 112.81
        },
        {
            "atom1": 4,
            "atom2": 3,
            "atom3": 10,
            "spring_constant": 62.56,
            "theta": 125.09
        },
        {
            "atom1": 4,
            "atom2": 5,
            "atom3": 9,
            "spring_constant": 64.81,
            "theta": 119.45
        },
        {
            "atom1": 4,
            "atom2": 6,
            "atom3": 7,
            "spring_constant": 64.69,
            "theta": 108.1
        },
        {
            "atom1": 5,
            "atom2": 1,
            "atom3": 30,
            "spring_constant": 67.66,
            "theta": 111.04
        },
        {
            "atom1": 5,
            "atom2": 4,
            "atom3": 6,
            "spring_constant": 64.81,
            "theta": 119.45
        },
        {
            "atom1": 5,
            "atom2": 9,
            "atom3": 8,
            "spring_constant": 66.67,
            "theta": 111.57
        },
        {
            "atom1": 6,
            "atom2": 7,
            "atom3": 8,
            "spring_constant": 66.18,
            "theta": 110.38
        },
        {
            "atom1": 7,
            "atom2": 8,
            "atom3": 9,
            "spring_constant": 64.01,
            "theta": 110.9
        },
        {
            "atom1": 7,
            "atom2": 8,
            "atom3": 40,
            "spring_constant": 80.59,
            "theta": 116.57
        },
        {
            "atom1": 8,
            "atom2": 40,
            "atom3": 41,
            "spring_constant": 41.12,
            "theta": 101.38
        },
        {
            "atom1": 8,
            "atom2": 40,
            "atom3": 42,
            "spring_constant": 45.61,
            "theta": 106.8
        },
        {
            "atom1": 8,
            "atom2": 40,
            "atom3": 43,
            "spring_constant": 45.61,
            "theta": 106.8
        },
        {
            "atom1": 9,
            "atom2": 8,
            "atom3": 40,
            "spring_constant": 80.59,
            "theta": 116.57
        },
        {
            "atom1": 10,
            "atom2": 11,
            "atom3": 12,
            "spring_constant": 67.72,
            "theta": 109.43
        },
        {
            "atom1": 10,
            "atom2": 11,
            "atom3": 13,
            "spring_constant": 63.21,
            "theta": 110.63
        },
        {
            "atom1": 11,
            "atom2": 12,
            "atom3": 44,
            "spring_constant": 47.09,
            "theta": 108.16
        },
        {
            "atom1": 11,
            "atom2": 13,
            "atom3": 14,
            "spring_constant": 64.45,
            "theta": 114.32
        },
        {
            "atom1": 12,
            "atom2": 11,
            "atom3": 13,
            "spring_constant": 67.72,
            "theta": 109.43
        },
        {
            "atom1": 13,
            "atom2": 14,
            "atom3": 15,
            "spring_constant": 62.84,
            "theta": 110.64
        },
        {
            "atom1": 13,
            "atom2": 14,
            "atom3": 19,
            "spring_constant": 62.84,
            "theta": 110.64
        },
        {
            "atom1": 13,
            "atom2": 14,
            "atom3": 45,
            "spring_constant": 46.19,
            "theta": 110.11
        },
        {
            "atom1": 14,
            "atom2": 15,
            "atom3": 16,
            "spring_constant": 64.45,
            "theta": 114.32
        },
        {
            "atom1": 14,
            "atom2": 19,
            "atom3": 18,
            "spring_constant": 64.45,
            "theta": 114.32
        },
        {
            "atom1": 15,
            "atom2": 14,
            "atom3": 19,
            "spring_constant": 62.84,
            "theta": 110.64
        },
        {
            "atom1": 15,
            "atom2": 14,
            "atom3": 45,
            "spring_constant": 46.19,
            "theta": 110.11
        },
        {
            "atom1": 15,
            "atom2": 16,
            "atom3": 17,
            "spring_constant": 63.21,
            "theta": 110.63
        },
        {
            "atom1": 16,
            "atom2": 17,
            "atom3": 18,
            "spring_constant": 63.21,
            "theta": 110.63
        },
        {
            "atom1": 16,
            "atom2": 17,
            "atom3": 20,
            "spring_constant": 63.57,
            "theta": 111.92
        },
        {
            "atom1": 17,
            "atom2": 18,
            "atom3": 19,
            "spring_constant": 63.21,
            "theta": 110.63
        },
        {
            "atom1": 17,
            "atom2": 20,
            "atom3": 21,
            "spring_constant": 64.66,
            "theta": 115.97
        },
        {
            "atom1": 17,
            "atom2": 20,
            "atom3": 29,
            "spring_constant": 64.81,
            "theta": 119.45
        },
        {
            "atom1": 18,
            "atom2": 17,
            "atom3": 20,
            "spring_constant": 63.57,
            "theta": 111.92
        },
        {
            "atom1": 19,
            "atom2": 14,
            "atom3": 45,
            "spring_constant": 46.19,
            "theta": 110.11
        },
        {
            "atom1": 20,
            "atom2": 21,
            "atom3": 22,
            "spring_constant": 64.66,
            "theta": 115.97
        },
        {
            "atom1": 20,
            "atom2": 21,
            "atom3": 23,
            "spring_constant": 68.16,
            "theta": 114.19
        },
        {
            "atom1": 20,
            "atom2": 29,
            "atom3": 28,
            "spring_constant": 72.91,
            "theta": 109.42
        },
        {
            "atom1": 21,
            "atom2": 20,
            "atom3": 29,
            "spring_constant": 68.16,
            "theta": 114.19
        },
        {
            "atom1": 21,
            "atom2": 22,
            "atom3": 24,
            "spring_constant": 66.5,
            "theta": 113.02
        },
        {
            "atom1": 21,
            "atom2": 23,
            "atom3": 27,
            "spring_constant": 64.08,
            "theta": 126.28
        },
        {
            "atom1": 21,
            "atom2": 23,
            "atom3": 28,
            "spring_constant": 72.91,
            "theta": 109.42
        },
        {
            "atom1": 22,
            "atom2": 21,
            "atom3": 23,
            "spring_constant": 64.81,
            "theta": 119.45
        },
        {
            "atom1": 22,
            "atom2": 24,
            "atom3": 25,
            "spring_constant": 67.416,
            "theta": 110.355
        },
        {
            "atom1": 22,
            "atom2": 24,
            "atom3": 26,
            "spring_constant": 63.17,
            "theta": 123.71
        },
        {
            "atom1": 23,
            "atom2": 27,
            "atom3": 26,
            "spring_constant": 65.81,
            "theta": 122.05
        },
        {
            "atom1": 23,
            "atom2": 28,
            "atom3": 29,
            "spring_constant": 68.94,
            "theta": 109.9
        },
        {
            "atom1": 23,
            "atom2": 28,
            "atom3": 47,
            "spring_constant": 47.07,
            "theta": 125.22
        },
        {
            "atom1": 24,
            "atom2": 25,
            "atom3": 46,
            "spring_constant": 49.97,
            "theta": 102.42
        },
        {
            "atom1": 24,
            "atom2": 26,
            "atom3": 27,
            "spring_constant": 69.8,
            "theta": 124.99
        },
        {
            "atom1": 25,
            "atom2": 24,
            "atom3": 26,
            "spring_constant": 69.45,
            "theta": 112.51
        },
        {
            "atom1": 27,
            "atom2": 23,
            "atom3": 28,
            "spring_constant": 66.09,
            "theta": 124.6
        },
        {
            "atom1": 29,
            "atom2": 28,
            "atom3": 47,
            "spring_constant": 47.07,
            "theta": 125.22
        },
        {
            "atom1": 30,
            "atom2": 31,
            "atom3": 32,
            "spring_constant": 67.18,
            "theta": 119.97
        },
        {
            "atom1": 30,
            "atom2": 35,
            "atom3": 34,
            "spring_constant": 67.18,
            "theta": 119.97
        },
        {
            "atom1": 31,
            "atom2": 30,
            "atom3": 35,
            "spring_constant": 67.18,
            "theta": 119.97
        },
        {
            "atom1": 31,
            "atom2": 32,
            "atom3": 33,
            "spring_constant": 67.18,
            "theta": 119.97
        },
        {
            "atom1": 32,
            "atom2": 33,
            "atom3": 34,
            "spring_constant": 67.18,
            "theta": 119.97
        },
        {
            "atom1": 32,
            "atom2": 33,
            "atom3": 36,
            "spring_constant": 63.84,
            "theta": 120.63
        },
        {
            "atom1": 33,
            "atom2": 34,
            "atom3": 35,
            "spring_constant": 67.18,
            "theta": 119.97
        },
        {
            "atom1": 33,
            "atom2": 36,
            "atom3": 37,
            "spring_constant": 66.14,
            "theta": 111.76
        },
        {
            "atom1": 33,
            "atom2": 36,
            "atom3": 38,
            "spring_constant": 66.14,
            "theta": 111.76
        },
        {
            "atom1": 33,
            "atom2": 36,
            "atom3": 39,
            "spring_constant": 66.14,
            "theta": 111.76
        },
        {
            "atom1": 34,
            "atom2": 33,
            "atom3": 36,
            "spring_constant": 63.84,
            "theta": 120.63
        },
        {
            "atom1": 37,
            "atom2": 36,
            "atom3": 38,
            "spring_constant": 71.26,
            "theta": 107.16
        },
        {
            "atom1": 37,
            "atom2": 36,
            "atom3": 39,
            "spring_constant": 71.26,
            "theta": 107.16
        },
        {
            "atom1": 38,
            "atom2": 36,
            "atom3": 39,
            "spring_constant": 71.26,
            "theta": 107.16
        },
        {
            "atom1": 41,
            "atom2": 40,
            "atom3": 42,
            "spring_constant": 41.66,
            "theta": 108.32
        },
        {
            "atom1": 41,
            "atom2": 40,
            "atom3": 43,
            "spring_constant": 41.66,
            "theta": 108.32
        },
        {
            "atom1": 42,
            "atom2": 40,
            "atom3": 43,
            "spring_constant": 46.66,
            "theta": 119.73
        }
    ],
    "atoms": [
        {
            "ace_volume": 12.403,
            "acp_type": -1,
            "charge": 0.4148,
            "element": "C",
            "eps": -0.05,
            "eps03": -0.1,
            "ftype_index": 1,
            "ftype_name": "C5R",
            "name": "C1",
            "radius": 2.04,
            "radius03": 1.76,
            "residue": "1",
            "segment": "X",
            "sybyl_type": "C.2",
            "x": -5.294,
            "y": 9.539,
            "z": -6.894
        },
        {
            "ace_volume": 1.879,
            "acp_type": -1,
            "charge": -0.5428,
            "element": "N",
            "eps": -0.09,
            "eps03": -0.09,
            "ftype_index": 2,
            "ftype_name": "N5R",
            "hb_acceptor": true,
            "name": "N1",
            "radius": 1.72,
            "radius03": 1.72,
            "residue": "1",
            "segment": "X",
            "sybyl_type": "N.2",
            "x": -4.078,
            "y": 10.068,
            "yeti_type": "N5_aromatic",
            "z": -7.156
        },
        {
            "ace_volume": 1.879,
            "acp_type": -1,
            "charge": 0.0764,
            "element": "N",
            "eps": -0.09,
            "eps03": -0.09,
            "ftype_index": 2,
            "ftype_name": "N5R",
            "name": "N2",
            "radius": 1.72,
            "radius03": 1.72,
            "residue": "1",
            "segment": "X",
            "sybyl_type": "N.pl3",
            "x": -4.192,
            "y": 10.874,
            "yeti_type": "N5_aromatic",
            "z": -8.202
        },
        {
            "ace_volume": 12.403,
            "acp_type": -1,
            "charge": -0.0806,
            "element": "C",
            "eps": -0.05,
            "eps03": -0.1,
            "ftype_index": 1,
            "ftype_name": "C5R",
            "name": "C2",
            "radius": 2.04,
            "radius03": 1.76,
            "residue": "1",
            "segment": "X",
            "sybyl_type": "C.2",
            "x": -5.468,
            "y": 10.863,
            "z": -8.632
        },
        {
            "ace_volume": 12.403,
            "acp_type": -1,
            "charge": -0.2476,
            "element": "C",
            "eps": -0.05,
            "eps03": -0.1,
            "ftype_index": 1,
            "ftype_name": "C5R",
            "name": "C3",
            "radius": 2.04,
            "radius03": 1.76,
            "residue": "1",
            "segment": "X",
            "sybyl_type": "C.2",
            "x": -6.194,
            "y": 10.01,
            "z": -7.844
        },
        {
            "ace_volume": 35.356,
            "acp_type": -1,
            "charge": 0.0923,
            "element": "C",
            "eps": -0.1142,
            "eps03": -0.1,
            "ftype_index": 3,
            "ftype_name": "CH2E",
            "name": "C4",
            "radius": 2.235,
            "radius03": 1.76,
            "residue": "1",
            "segment": "X",
            "sybyl_type": "C.3",
            "x": -5.994,
            "y": 11.442,
            "z": -9.911
        },
        {
            "ace_volume": 35.356,
            "acp_type": -1,
            "charge": 0.3652,
            "element": "C",
            "eps": -0.1142,
            "eps03": -0.1,
            "ftype_index": 3,
            "ftype_name": "CH2E",
            "name": "C5",
            "radius": 2.235,
            "radius03": 1.76,
            "residue": "1",
            "segment": "X",
            "sybyl_type": "C.3",
            "x": -7.52,
            "y": 11.222,
            "z": -10.022
        },
        {
            "ace_volume": 16.611,
            "acp_type": -1,
            "charge": -0.8145,
            "element": "N",
            "eps": -0.09,
            "eps03": -0.1,
            "ftype_index": 4,
            "ftype_name": "N",
            "hb_acceptor": true,
            "name": "N3",
            "radius": 1.83,
            "radius03": 1.63,
            "residue": "1",
            "segment": "X",
            "sybyl_type": "N.3",
            "x": -7.96,
            "y": 9.883,
            "z": -9.557
        },
        {
            "ace_volume": 35.356,
            "acp_type": -1,
            "charge": 0.4515,
            "element": "C",
            "eps": -0.1142,
            "eps03": -0.1,
            "ftype_index": 3,
            "ftype_name": "CH2E",
            "name": "C6",
            "radius": 2.235,
            "radius03": 1.76,
            "residue": "1",
            "segment": "X",
            "sybyl_type": "C.3",
            "x": -7.619,
            "y": 9.635,
            "z": -8.141
        },
        {
            "ace_volume": 35.356,
            "acp_type": -1,
            "charge": 0.1967,
            "element": "C",
            "eps": -0.1142,
            "eps03": -0.1,
            "ftype_index": 3,
            "ftype_name": "CH2E",
            "name": "C7",
            "radius": 2.235,
            "radius03": 1.76,
            "residue": "1",
            "segment": "X",
            "sybyl_type": "C.3",
            "x": -3.058,
            "y": 11.56,
            "z": -8.826
        },
        {
            "ace_volume": 12.257,
            "acp_type": -1,
            "charge": 0.1978,
            "element": "C",
            "eps": -0.0486,
            "eps03": -0.1,
            "ftype_index": 5,
            "ftype_name": "CH1E",
            "name": "C8",
            "radius": 2.265,
            "radius03": 1.76,
            "residue": "1",
            "segment": "X",
            "sybyl_type": "C.3",
            "x": -3.267,
            "y": 12.773,
            "z": -7.898
        },
        {
            "ace_volume": 21.427,
            "acp_type": -1,
            "charge": -0.6348,
            "element": "O",
            "eps": -0.1521,
            "eps03": -0.2,
            "ftype_index": 6,
            "ftype_name": "OT",
            "hb_acceptor": true,
            "name": "O1",
            "radius": 1.55,
            "radius03": 1.48,
            "residue": "1",
            "segment": "X",
            "sybyl_type": "O.3",
            "x": -4.247,
            "y": 13.629,
            "yeti_type": "hydroxyl",
            "z": -8.427
        },
        {
            "ace_volume": 35.356,
            "acp_type": -1,
            "charge": 0.3152,
            "element": "C",
            "eps": -0.1142,
            "eps03": -0.1,
            "ftype_index": 3,
            "ftype_name": "CH2E",
            "name": "C9",
            "radius": 2.235,
            "radius03": 1.76,
            "residue": "1",
            "segment": "X",
            "sybyl_type": "C.3",
            "x": -1.955,
            "y": 13.566,
            "z": -7.69
        },
        {
            "ace_volume": 15.521,
            "acp_type": -1,
            "charge": -0.6794,
            "element": "N",
            "eps": -0.15,
            "eps03": -0.15,
            "ftype_index": 7,
            "ftype_name": "NT",
            "name": "N4",
            "radius": 1.65,
            "radius03": 1.65,
            "residue": "1",
            "segment": "X",
            "sybyl_type": "N.4",
            "x": -2.048,
            "y": 14.521,
            "z": -6.556
        },
        {
            "ace_volume": 35.356,
            "acp_type": -1,
            "charge": 0.3072,
            "element": "C",
            "eps": -0.1142,
            "eps03": -0.1,
            "ftype_index": 3,
            "ftype_name": "CH2E",
            "name": "C10",
            "radius": 2.235,
            "radius03": 1.76,
            "residue": "1",
            "segment": "X",
            "sybyl_type": "C.3",
            "x": -0.945,
            "y": 15.507,
            "z": -6.638
        },
        {
            "ace_volume": 35.356,
            "acp_type": -1,
            "charge": 0.0725,
            "element": "C",
            "eps": -0.1142,
            "eps03": -0.1,
            "ftype_index": 3,
            "ftype_name": "CH2E",
            "name": "C11",
            "radius": 2.235,
            "radius03": 1.76,
            "residue": "1",
            "segment": "X",
            "sybyl_type": "C.3",
            "x": -1.088,
            "y": 16.616,
            "z": -5.575
        },
        {
            "ace_volume": 12.257,
            "acp_type": -1,
            "charge": 0.0813,
            "element": "C",
            "eps": -0.0486,
            "eps03": -0.1,
            "ftype_index": 5,
            "ftype_name": "CH1E",
            "name": "C12",
            "radius": 2.265,
            "radius03": 1.76,
            "residue": "1",
            "segment": "X",
            "sybyl_type": "C.3",
            "x": -1.738,
            "y": 16.103,
            "z": -4.268
        },
        {
            "ace_volume": 35.356,
            "acp_type": -1,
            "charge": 0.0725,
            "element": "C",
            "eps": -0.1142,
            "eps03": -0.1,
            "ftype_index": 3,
            "ftype_name": "CH2E",
            "name": "C13",
            "radius": 2.235,
            "radius03": 1.76,
            "residue": "1",
            "segment": "X",
            "sybyl_type": "C.3",
            "x": -1.464,
            "y": 14.61,
            "z": -4.08
        },
        {
            "ace_volume": 35.356,
            "acp_type": -1,
            "charge": 0.3072,
            "element": "C",
            "eps": -0.1142,
            "eps03": -0.1,
            "ftype_index": 3,
            "ftype_name": "CH2E",
            "name": "C14",
            "radius": 2.235,
            "radius03": 1.76,
            "residue": "1",
            "segment": "X",
            "sybyl_type": "C.3",
            "x": -2.057,
            "y": 13.797,
            "z": -5.247
        },
        {
            "ace_volume": 12.403,
            "acp_type": -1,
            "charge": -0.1713,
            "element": "C",
            "eps": -0.05,
            "eps03": -0.1,
            "ftype_index": 1,
            "ftype_name": "C5R",
            "name": "C15",
            "radius": 2.04,
            "radius03": 1.76,
            "residue": "1",
            "segment": "X",
            "sybyl_type": "C.2",
            "x": -1.267,
            "y": 16.885,
            "z": -3.064
        },
        {
            "ace_volume": 12.403,
            "acp_type": -1,
            "charge": -0.1643,
            "element": "C",
            "eps": -0.05,
            "eps03": -0.1,
            "ftype_index": 1,
            "ftype_name": "C5R",
            "name": "C16",
            "radius": 2.04,
            "radius03": 1.76,
            "residue": "1",
            "segment": "X",
            "sybyl_type": "C.2",
            "x": -2.047,
            "y": 17.518,
            "z": -2.114
        },
        {
            "ace_volume": 35.356,
            "acp_type": -1,
            "charge": 0.3495,
            "element": "C",
            "eps": -0.1142,
            "eps03": -0.1,
            "ftype_index": 3,
            "ftype_name": "CH2E",
            "name": "C17",
            "radius": 2.235,
            "radius03": 1.76,
            "residue": "1",
            "segment": "X",
            "sybyl_type": "C.3",
            "x": -3.431,
            "y": 17.645,
            "z": -1.967
        },
        {
            "ace_volume": 12.403,
            "acp_type": -1,
            "charge": -0.0481,
            "element": "C",
            "eps": -0.05,
            "eps03": -0.1,
            "ftype_index": 1,
            "ftype_name": "C5R",
            "name": "C18",
            "radius": 2.04,
            "radius03": 1.76,
            "residue": "1",
            "segment": "X",
            "sybyl_type": "C.2",
            "x": -1.199,
            "y": 18.029,
            "z": -1.171
        },
        {
            "ace_volume": 16.611,
            "acp_type": -1,
            "charge": -0.3799,
            "element": "N",
            "eps": -0.09,
            "eps03": -0.1,
            "ftype_index": 4,
            "ftype_name": "N",
            "name": "N5",
            "radius": 1.83,
            "radius03": 1.63,
            "residue": "1",
            "segment": "X",
            "sybyl_type": "N.3",
            "x": -3.912,
            "y": 18.292,
            "z": -0.861
        },
        {
            "ace_volume": 21.427,
            "acp_type": -1,
            "charge": -0.4093,
            "element": "O",
            "eps": -0.1521,
            "eps03": -0.2,
            "ftype_index": 6,
            "ftype_name": "OT",
            "hb_acceptor": true,
            "name": "O2",
            "radius": 1.55,
            "radius03": 1.48,
            "residue": "1",
            "segment": "X",
            "sybyl_type": "O.3",
            "x": -5.269,
            "y": 18.416,
            "yeti_type": "hydroxyl",
            "z": -0.693
        },
        {
            "ace_volume": 12.403,
            "acp_type": -1,
            "charge": 0.198,
            "element": "C",
            "eps": -0.04,
            "eps03": -0.1,
            "ftype_index": 8,
            "ftype_name": "CUA1",
            "name": "C19",
            "radius": 1.96,
            "radius03": 1.76,
            "residue": "1",
            "segment": "X",
            "sybyl_type": "C.2",
            "x": -3.068,
            "y": 18.819,
            "z": 0.087
        },
        {
            "ace_volume": 12.257,
            "acp_type": -1,
            "charge": -0.0032,
            "element": "C",
            "eps": -0.0486,
            "eps03": -0.1,
            "ftype_index": 5,
            "ftype_name": "CH1E",
            "name": "C20",
            "radius": 2.265,
            "radius03": 1.76,
            "residue": "1",
            "segment": "X",
            "sybyl_type": "C.2",
            "x": -1.674,
            "y": 18.698,
            "z": -0.046
        },
        {
            "ace_volume": 1.879,
            "acp_type": -1,
            "charge": -0.1431,
            "element": "N",
            "eps": -0.09,
            "eps03": -0.09,
            "ftype_index": 2,
            "ftype_name": "N5R",
            "name": "N6",
            "radius": 1.72,
            "radius03": 1.72,
            "residue": "1",
            "segment": "X",
            "sybyl_type": "N.pl3",
            "x": 0.081,
            "y": 17.756,
            "z": -1.478
        },
        {
            "ace_volume": 18.583,
            "acp_type": -1,
            "charge": 0.0197,
            "element": "C",
            "eps": -0.0903,
            "eps03": -0.1,
            "ftype_index": 9,
            "ftype_name": "C5RE",
            "name": "C21",
            "radius": 2.1,
            "radius03": 1.9,
            "residue": "1",
            "segment": "X",
            "sybyl_type": "C.2",
            "x": 0.05,
            "y": 17.045,
            "z": -2.629
        },
        {
            "ace_volume": 12.403,
            "acp_type": -1,
            "charge": -0.1035,
            "element": "C",
            "eps": -0.05,
            "eps03": -0.1,
            "ftype_index": 10,
            "ftype_name": "C6R",
            "name": "C22",
            "radius": 2.04,
            "radius03": 1.76,
            "residue": "1",
            "segment": "X",
            "sybyl_type": "C.ar",
            "x": -5.532,
            "y": 8.542,
            "z": -5.824
        },
        {
            "ace_volume": 18.583,
            "acp_type": -1,
            "charge": 0.0315,
            "element": "C",
            "eps": -0.0903,
            "eps03": -0.1,
            "ftype_index": 11,
            "ftype_name": "C6RE",
            "name": "C23",
            "radius": 1.99,
            "radius03": 1.99,
            "residue": "1",
            "segment": "X",
            "sybyl_type": "C.ar",
            "x": -4.462,
            "y": 7.759,
            "z": -5.352
        },
        {
            "ace_volume": 18.583,
            "acp_type": -1,
            "charge": 0.079,
            "element": "C",
            "eps": -0.0903,
            "eps03": -0.1,
            "ftype_index": 11,
            "ftype_name": "C6RE",
            "name": "C24",
            "radius": 1.99,
            "radius03": 1.99,
            "residue": "1",
            "segment": "X",
            "sybyl_type": "C.ar",
            "x": -4.668,
            "y": 6.801,
            "z": -4.355
        },
        {
            "ace_volume": 12.403,
            "acp_type": -1,
            "charge": -0.1523,
            "element": "C",
            "eps": -0.05,
            "eps03": -0.1,
            "ftype_index": 10,
            "ftype_name": "C6R",
            "name": "C25",
            "radius": 2.04,
            "radius03": 1.76,
            "residue": "1",
            "segment": "X",
            "sybyl_type": "C.ar",
            "x": -5.946,
            "y": 6.605,
            "z": -3.807
        },
        {
            "ace_volume": 18.583,
            "acp_type": -1,
            "charge": 0.079,
            "element": "C",
            "eps": -0.0903,
            "eps03": -0.1,
            "ftype_index": 11,
            "ftype_name": "C6RE",
            "name": "C26",
            "radius": 1.99,
            "radius03": 1.99,
            "residue": "1",
            "segment": "X",
            "sybyl_type": "C.ar",
            "x": -7.011,
            "y": 7.404,
            "z": -4.259
        },
        {
            "ace_volume": 18.583,
            "acp_type": -1,
            "charge": 0.0315,
            "element": "C",
            "eps": -0.0903,
            "eps03": -0.1,
            "ftype_index": 11,
            "ftype_name": "C6RE",
            "name": "C27",
            "radius": 1.99,
            "radius03": 1.99,
            "residue": "1",
            "segment": "X",
            "sybyl_type": "C.ar",
            "x": -6.801,
            "y": 8.371,
            "z": -5.246
        },
        {
            "ace_volume": 12.403,
            "acp_type": -1,
            "charge": 0.6872,
            "element": "C",
            "eps": -0.0903,
            "eps03": -0.1,
            "ftype_index": 12,
            "ftype_name": "CT",
            "name": "C28",
            "radius": 1.8,
            "radius03": 1.75,
            "residue": "1",
            "segment": "X",
            "sybyl_type": "C.3",
            "x": -6.138,
            "y": 5.552,
            "z": -2.747
        },
        {
            "ace_volume": 40.947,
            "acp_type": -1,
            "charge": -0.2313,
            "element": "F",
            "eps": -0.1,
            "eps03": -0.15,
            "ftype_index": 13,
            "ftype_name": "XF",
            "name": "F1",
            "radius": 1.7,
            "radius03": 1.55,
            "residue": "1",
            "segment": "X",
            "sybyl_type": "F",
            "x": -7.451,
            "y": 5.495,
            "z": -2.316
        },
        {
            "ace_volume": 40.947,
            "acp_type": -1,
            "charge": -0.2313,
            "element": "F",
            "eps": -0.1,
            "eps03": -0.15,
            "ftype_index": 13,
            "ftype_name": "XF",
            "name": "F2",
            "radius": 1.7,
            "radius03": 1.55,
            "residue": "1",
            "segment": "X",
            "sybyl_type": "F",
            "x": -5.788,
            "y": 4.318,
            "z": -3.261
        },
        {
            "ace_volume": 40.947,
            "acp_type": -1,
            "charge": -0.2313,
            "element": "F",
            "eps": -0.1,
            "eps03": -0.15,
            "ftype_index": 13,
            "ftype_name": "XF",
            "name": "F3",
            "radius": 1.7,
            "radius03": 1.55,
            "residue": "1",
            "segment": "X",
            "sybyl_type": "F",
            "x": -5.327,
            "y": 5.837,
            "z": -1.664
        },
        {
            "ace_volume": 15.196,
            "acp_type": -1,
            "charge": 1.4569,
            "element": "S",
            "eps": -0.043,
            "eps03": -0.043,
            "ftype_index": 14,
            "ftype_name": "S",
            "name": "S1",
            "radius": 1.89,
            "radius03": 1.89,
            "residue": "1",
            "segment": "X",
            "sybyl_type": "S.o2",
            "x": -7.397,
            "y": 8.583,
            "z": -10.586
        },
        {
            "ace_volume": 40.947,
            "acp_type": -1,
            "charge": 0.004799,
            "element": "C",
            "eps": -0.1811,
            "eps03": -0.1,
            "ftype_index": 15,
            "ftype_name": "CH3E",
            "hb_acceptor": true,
            "name": "C29",
            "radius": 2.165,
            "radius03": 1.76,
            "residue": "1",
            "segment": "X",
            "sybyl_type": "C.3",
            "x": -7.773,
            "y": 8.922,
            "z": -12.295
        },
        {
            "ace_volume": 14.375,
            "acp_type": -1,
            "charge": -0.6498,
            "element": "O",
            "eps": -0.1591,
            "eps03": -0.2,
            "ftype_index": 16,
            "ftype_name": "O",
            "hb_acceptor": true,
            "name": "O3",
            "radius": 1.55,
            "radius03": 1.36,
            "residue": "1",
            "segment": "X",
            "sybyl_type": "O.2",
            "x": -8.102,
            "y": 7.314,
            "yeti_type": "sulfonamide",
            "z": -10.197
        },
        {
            "ace_volume": 14.375,
            "acp_type": -1,
            "charge": -0.6498,
            "element": "O",
            "eps": -0.1591,
            "eps03": -0.2,
            "ftype_index": 16,
            "ftype_name": "O",
            "name": "O4",
            "radius": 1.55,
            "radius03": 1.36,
            "residue": "1",
            "segment": "X",
            "sybyl_type": "O.2",
            "x": -5.912,
            "y": 8.385,
            "yeti_type": "sulfonamide",
            "z": -10.444
        },
        {
            "ace_volume": 0.44,
            "acp_type": -1,
            "charge": 0.471,
            "element": "H",
            "eps": -0.0498,
            "eps03": -0.0498,
            "ftype_index": 17,
            "ftype_name": "HO",
            "hb_donor": true,
            "name": "H10",
            "radius": 0.76,
            "radius03": 0.76,
            "residue": "1",
            "segment": "X",
            "sybyl_type": "H",
            "x": -3.951,
            "y": 13.967,
            "z": -9.287
        },
        {
            "ace_volume": 0.31,
            "acp_type": -1,
            "charge": 0.4698,
            "element": "H",
            "eps": -0.0498,
            "eps03": -0.0498,
            "ftype_index": 18,
            "ftype_name": "H",
            "hb_donor": true,
            "name": "H13",
            "radius": 0.8,
            "radius03": 0.8,
            "residue": "1",
            "segment": "X",
            "sybyl_type": "H",
            "x": -2.93,
            "y": 15.029,
            "z": -6.618
        },
        {
            "ace_volume": 0.44,
            "acp_type": -1,
            "charge": 0.428,
            "element": "H",
            "eps": -0.0498,
            "eps03": -0.0498,
            "ftype_index": 17,
            "ftype_name": "HO",
            "hb_donor": true,
            "name": "H25",
            "radius": 0.76,
            "radius03": 0.76,
            "residue": "1",
            "segment": "X",
            "sybyl_type": "H",
            "x": -5.727,
            "y": 17.997,
            "z": -1.439
        },
        {
            "ace_volume": 0.31,
            "acp_type": -1,
            "charge": 0.3117,
            "element": "H",
            "eps": -0.0498,
            "eps03": -0.0498,
            "ftype_index": 18,
            "ftype_name": "H",
            "name": "H28",
            "radius": 0.8,
            "radius03": 0.8,
            "residue": "1",
            "segment": "X",
            "sybyl_type": "H",
            "x": 0.88,
            "y": 18.02,
            "z": -0.968
        }
    ],
    "bonds": [
        {
            "atom1": 1,
            "atom2": 2,
            "length": 1.335,
            "sdf_type": 2,
            "spring_constant": 494.6
        },
        {
            "atom1": 1,
            "atom2": 5,
            "length": 1.429,
            "sdf_type": 1,
            "spring_constant": 418.3
        },
        {
            "atom1": 1,
            "atom2": 30,
            "length": 1.434,
            "sdf_type": 1,
            "spring_constant": 411.7
        },
        {
            "atom1": 2,
            "atom2": 3,
            "length": 1.35,
            "sdf_type": 1,
            "spring_constant": 535.7
        },
        {
            "atom1": 3,
            "atom2": 4,
            "length": 1.371,
            "sdf_type": 1,
            "spring_constant": 438.8
        },
        {
            "atom1": 3,
            "atom2": 10,
            "length": 1.456,
            "sdf_type": 1,
            "spring_constant": 334.7
        },
        {
            "atom1": 4,
            "atom2": 5,
            "length": 1.371,
            "sdf_type": 2,
            "spring_constant": 504.0
        },
        {
            "atom1": 4,
            "atom2": 6,
            "length": 1.499,
            "sdf_type": 1,
            "spring_constant": 337.3
        },
        {
            "atom1": 5,
            "atom2": 9,
            "length": 1.499,
            "sdf_type": 1,
            "spring_constant": 337.3
        },
        {
            "atom1": 6,
            "atom2": 7,
            "length": 1.535,
            "sdf_type": 1,
            "spring_constant": 303.1
        },
        {
            "atom1": 7,
            "atom2": 8,
            "length": 1.47,
            "sdf_type": 1,
            "spring_constant": 320.6
        },
        {
            "atom1": 8,
            "atom2": 9,
            "length": 1.47,
            "sdf_type": 1,
            "spring_constant": 320.6
        },
        {
            "atom1": 8,
            "atom2": 40,
            "length": 1.632,
            "sdf_type": 1,
            "spring_constant": 353.8
        },
        {
            "atom1": 10,
            "atom2": 11,
            "length": 1.535,
            "sdf_type": 1,
            "spring_constant": 303.1
        },
        {
            "atom1": 11,
            "atom2": 12,
            "length": 1.426,
            "sdf_type": 1,
            "spring_constant": 314.1
        },
        {
            "atom1": 11,
            "atom2": 13,
            "length": 1.535,
            "sdf_type": 1,
            "spring_constant": 303.1
        },
        {
            "atom1": 12,
            "atom2": 44,
            "length": 0.974,
            "sdf_type": 1,
            "spring_constant": 369.6
        },
        {
            "atom1": 13,
            "atom2": 14,
            "length": 1.499,
            "sdf_type": 1,
            "spring_constant": 293.6
        },
        {
            "atom1": 14,
            "atom2": 15,
            "length": 1.499,
            "sdf_type": 1,
            "spring_constant": 293.6
        },
        {
            "atom1": 14,
            "atom2": 19,
            "length": 1.499,
            "sdf_type": 1,
            "spring_constant": 293.6
        },
        {
            "atom1": 14,
            "atom2": 45,
            "length": 1.033,
            "sdf_type": 1,
            "spring_constant": 369.0
        },
        {
            "atom1": 15,
            "atom2": 16,
            "length": 1.535,
            "sdf_type": 1,
            "spring_constant": 303.1
        },
        {
            "atom1": 16,
            "atom2": 17,
            "length": 1.535,
            "sdf_type": 1,
            "spring_constant": 303.1
        },
        {
            "atom1": 17,
            "atom2": 18,
            "length": 1.535,
            "sdf_type": 1,
            "spring_constant": 303.1
        },
        {
            "atom1": 17,
            "atom2": 20,
            "length": 1.499,
            "sdf_type": 1,
            "spring_constant": 337.3
        },
        {
            "atom1": 18,
            "atom2": 19,
            "length": 1.535,
            "sdf_type": 1,
            "spring_constant": 303.1
        },
        {
            "atom1": 20,
            "atom2": 21,
            "length": 1.429,
            "sdf_type": 1,
            "spring_constant": 418.3
        },
        {
            "atom1": 20,
            "atom2": 29,
            "length": 1.371,
            "sdf_type": 2,
            "spring_constant": 504.0
        },
        {
            "atom1": 21,
            "atom2": 22,
            "length": 1.499,
            "sdf_type": 1,
            "spring_constant": 337.3
        },
        {
            "atom1": 21,
            "atom2": 23,
            "length": 1.371,
            "sdf_type": 2,
            "spring_constant": 504.0
        },
        {
            "atom1": 22,
            "atom2": 24,
            "length": 1.458,
            "sdf_type": 1,
            "spring_constant": 332.7
        },
        {
            "atom1": 23,
            "atom2": 27,
            "length": 1.458,
            "sdf_type": 1,
            "spring_constant": 381.8
        },
        {
            "atom1": 23,
            "atom2": 28,
            "length": 1.371,
            "sdf_type": 1,
            "spring_constant": 438.8
        },
        {
            "atom1": 24,
            "atom2": 25,
            "length": 1.414,
            "sdf_type": 1,
            "spring_constant": 389.9
        },
        {
            "atom1": 24,
            "atom2": 26,
            "length": 1.355,
            "sdf_type": 1,
            "spring_constant": 462.6
        },
        {
            "atom1": 25,
            "atom2": 46,
            "length": 0.974,
            "sdf_type": 1,
            "spring_constant": 369.6
        },
        {
            "atom1": 26,
            "atom2": 27,
            "length": 1.339,
            "sdf_type": 2,
            "spring_constant": 560.5
        },
        {
            "atom1": 28,
            "atom2": 29,
            "length": 1.371,
            "sdf_type": 1,
            "spring_constant": 438.8
        },
        {
            "atom1": 28,
            "atom2": 47,
            "length": 1.011,
            "sdf_type": 1,
            "spring_constant": 406.6
        },
        {
            "atom1": 30,
            "atom2": 31,
            "length": 1.387,
            "sdf_type": 2,
            "spring_constant": 478.4
        },
        {
            "atom1": 30,
            "atom2": 35,
            "length": 1.387,
            "sdf_type": 1,
            "spring_constant": 478.4
        },
        {
            "atom1": 31,
            "atom2": 32,
            "length": 1.387,
            "sdf_type": 1,
            "spring_constant": 478.4
        },
        {
            "atom1": 32,
            "atom2": 33,
            "length": 1.387,
            "sdf_type": 2,
            "spring_constant": 478.4
        },
        {
            "atom1": 33,
            "atom2": 34,
            "length": 1.387,
            "sdf_type": 1,
            "spring_constant": 478.4
        },
        {
            "atom1": 33,
            "atom2": 36,
            "length": 1.513,
            "sdf_type": 1,
            "spring_constant": 323.5
        },
        {
            "atom1": 34,
            "atom2": 35,
            "length": 1.387,
            "sdf_type": 2,
            "spring_constant": 478.4
        },
        {
            "atom1": 36,
            "atom2": 37,
            "length": 1.344,
            "sdf_type": 1,
            "spring_constant": 363.8
        },
        {
            "atom1": 36,
            "atom2": 38,
            "length": 1.344,
            "sdf_type": 1,
            "spring_constant": 363.8
        },
        {
            "atom1": 36,
            "atom2": 39,
            "length": 1.344,
            "sdf_type": 1,
            "spring_constant": 363.8
        },
        {
            "atom1": 40,
            "atom2": 41,
            "length": 1.774,
            "sdf_type": 1,
            "spring_constant": 254.0
        },
        {
            "atom1": 40,
            "atom2": 42,
            "length": 1.436,
            "sdf_type": 2,
            "spring_constant": 541.1
        },
        {
            "atom1": 40,
            "atom2": 43,
            "length": 1.436,
            "sdf_type": 2,
            "spring_constant": 541.1
        }
    ],
    "impropers": [
        {
            "atom1": 30,
            "atom2": 5,
            "atom3": 1,
            "atom4": 2,
            "phi": 180.0,
            "spring_constant": 110.00000000000001
        },
        {
            "atom1": 10,
            "atom2": 4,
            "atom3": 3,
            "atom4": 2,
            "phi": 180.0,
            "spring_constant": 110.00000000000001
        },
        {
            "atom1": 6,
            "atom2": 5,
            "atom3": 4,
            "atom4": 3,
            "phi": 180.0,
            "spring_constant": 110.00000000000001
        },
        {
            "atom1": 9,
            "atom2": 1,
            "atom3": 5,
            "atom4": 4,
            "phi": 180.0,
            "spring_constant": 110.00000000000001
        },
        {
            "atom1": 17,
            "atom2": 21,
            "atom3": 20,
            "atom4": 29,
            "phi": 180.0,
            "spring_constant": 110.00000000000001
        },
        {
            "atom1": 22,
            "atom2": 20,
            "atom3": 21,
            "atom4": 23,
            "phi": 180.0,
            "spring_constant": 110.00000000000001
        },
        {
            "atom1": 21,
            "atom2": 27,
            "atom3": 23,
            "atom4": 28,
            "phi": 180.0,
            "spring_constant": 110.00000000000001
        },
        {
            "atom1": 26,
            "atom2": 22,
            "atom3": 24,
            "atom4": 25,
            "phi": 180.0,
            "spring_constant": 110.00000000000001
        },
        {
            "atom1": 23,
            "atom2": 29,
            "atom3": 28,
            "atom4": 47,
            "phi": 180.0,
            "spring_constant": 110.00000000000001
        },
        {
            "atom1": 31,
            "atom2": 35,
            "atom3": 30,
            "atom4": 1,
            "phi": 180.0,
            "spring_constant": 110.00000000000001
        },
        {
            "atom1": 36,
            "atom2": 32,
            "atom3": 33,
            "atom4": 34,
            "phi": 180.0,
            "spring_constant": 110.00000000000001
        }
    ],
    "torsions": [
        {
            "atom1": 5,
            "atom2": 1,
            "atom3": 2,
            "atom4": 3,
            "delta_constant": 180.0,
            "minima": 2,
            "spring_constant": 4.75
        },
        {
            "atom1": 30,
            "atom2": 1,
            "atom3": 2,
            "atom4": 3,
            "delta_constant": 180.0,
            "minima": 2,
            "spring_constant": 4.75
        },
        {
            "atom1": 2,
            "atom2": 1,
            "atom3": 5,
            "atom4": 4,
            "delta_constant": 180.0,
            "minima": 2,
            "spring_constant": 4.0
        },
        {
            "atom1": 30,
            "atom2": 1,
            "atom3": 5,
            "atom4": 4,
            "delta_constant": 180.0,
            "minima": 2,
            "spring_constant": 4.0
        },
        {
            "atom1": 2,
            "atom2": 1,
            "atom3": 5,
            "atom4": 9,
            "delta_constant": 180.0,
            "minima": 2,
            "spring_constant": 4.0
        },
        {
            "atom1": 30,
            "atom2": 1,
            "atom3": 5,
            "atom4": 9,
            "delta_constant": 180.0,
            "minima": 2,
            "spring_constant": 4.0
        },
        {
            "atom1": 2,
            "atom2": 1,
            "atom3": 30,
            "atom4": 31,
            "delta_constant": 180.0,
            "minima": 2,
            "spring_constant": 0.7
        },
        {
            "atom1": 5,
            "atom2": 1,
            "atom3": 30,
            "atom4": 31,
            "delta_constant": 180.0,
            "minima": 2,
            "spring_constant": 0.7
        },
        {
            "atom1": 2,
            "atom2": 1,
            "atom3": 30,
            "atom4": 35,
            "delta_constant": 180.0,
            "minima": 2,
            "spring_constant": 0.7
        },
        {
            "atom1": 5,
            "atom2": 1,
            "atom3": 30,
            "atom4": 35,
            "delta_constant": 180.0,
            "minima": 2,
            "spring_constant": 0.7
        },
        {
            "atom1": 1,
            "atom2": 2,
            "atom3": 3,
            "atom4": 4,
            "delta_constant": 180.0,
            "minima": 2,
            "spring_constant": 4.8
        },
        {
            "atom1": 1,
            "atom2": 2,
            "atom3": 3,
            "atom4": 10,
            "delta_constant": 180.0,
            "minima": 2,
            "spring_constant": 4.8
        },
        {
            "atom1": 2,
            "atom2": 3,
            "atom3": 4,
            "atom4": 5,
            "delta_constant": 180.0,
            "minima": 2,
            "spring_constant": 1.7
        },
        {
            "atom1": 10,
            "atom2": 3,
            "atom3": 4,
            "atom4": 5,
            "delta_constant": 180.0,
            "minima": 2,
            "spring_constant": 1.7
        },
        {
            "atom1": 2,
            "atom2": 3,
            "atom3": 4,
            "atom4": 6,
            "delta_constant": 180.0,
            "minima": 2,
            "spring_constant": 1.7
        },
        {
            "atom1": 10,
            "atom2": 3,
            "atom3": 4,
            "atom4": 6,
            "delta_constant": 180.0,
            "minima": 2,
            "spring_constant": 1.7
        },
        {
            "atom1": 3,
            "atom2": 4,
            "atom3": 5,
            "atom4": 1,
            "delta_constant": 180.0,
            "minima": 2,
            "spring_constant": 4.0
        },
        {
            "atom1": 6,
            "atom2": 4,
            "atom3": 5,
            "atom4": 1,
            "delta_constant": 180.0,
            "minima": 2,
            "spring_constant": 4.0
        },
        {
            "atom1": 3,
            "atom2": 4,
            "atom3": 5,
            "atom4": 9,
            "delta_constant": 180.0,
            "minima": 2,
            "spring_constant": 4.0
        },
        {
            "atom1": 6,
            "atom2": 4,
            "atom3": 5,
            "atom4": 9,
            "delta_constant": 180.0,
            "minima": 2,
            "spring_constant": 4.0
        },
        {
            "atom1": 4,
            "atom2": 6,
            "atom3": 7,
            "atom4": 8,
            "delta_constant": 0.0,
            "minima": 3,
            "spring_constant": 0.156
        },
        {
            "atom1": 6,
            "atom2": 7,
            "atom3": 8,
            "atom4": 9,
            "delta_constant": 0.0,
            "minima": 3,
            "spring_constant": 0.3
        },
        {
            "atom1": 6,
            "atom2": 7,
            "atom3": 8,
            "atom4": 9,
            "delta_constant": 180.0,
            "minima": 2,
            "spring_constant": 0.48
        },
        {
            "atom1": 6,
            "atom2": 7,
            "atom3": 8,
            "atom4": 40,
            "delta_constant": 0.0,
            "minima": 3,
            "spring_constant": 0.3
        },
        {
            "atom1": 7,
            "atom2": 8,
            "atom3": 9,
            "atom4": 5,
            "delta_constant": 0.0,
            "minima": 3,
            "spring_constant": 0.3
        },
        {
            "atom1": 40,
            "atom2": 8,
            "atom3": 9,
            "atom4": 5,
            "delta_constant": 0.0,
            "minima": 3,
            "spring_constant": 0.3
        },
        {
            "atom1": 7,
            "atom2": 8,
            "atom3": 40,
            "atom4": 41,
            "delta_constant": 0.0,
            "minima": 2,
            "spring_constant": 3.133
        },
        {
            "atom1": 9,
            "atom2": 8,
            "atom3": 40,
            "atom4": 41,
            "delta_constant": 0.0,
            "minima": 2,
            "spring_constant": 3.133
        },
        {
            "atom1": 7,
            "atom2": 8,
            "atom3": 40,
            "atom4": 42,
            "delta_constant": 0.0,
            "minima": 2,
            "spring_constant": 3.133
        },
        {
            "atom1": 9,
            "atom2": 8,
            "atom3": 40,
            "atom4": 42,
            "delta_constant": 0.0,
            "minima": 2,
            "spring_constant": 3.133
        },
        {
            "atom1": 7,
            "atom2": 8,
            "atom3": 40,
            "atom4": 43,
            "delta_constant": 0.0,
            "minima": 2,
            "spring_constant": 3.133
        },
        {
            "atom1": 9,
            "atom2": 8,
            "atom3": 40,
            "atom4": 43,
            "delta_constant": 0.0,
            "minima": 2,
            "spring_constant": 3.133
        },
        {
            "atom1": 3,
            "atom2": 10,
            "atom3": 11,
            "atom4": 12,
            "delta_constant": 0.0,
            "minima": 3,
            "spring_constant": 0.156
        },
        {
            "atom1": 3,
            "atom2": 10,
            "atom3": 11,
            "atom4": 13,
            "delta_constant": 0.0,
            "minima": 3,
            "spring_constant": 0.156
        },
        {
            "atom1": 10,
            "atom2": 11,
            "atom3": 12,
            "atom4": 44,
            "delta_constant": 0.0,
            "minima": 3,
            "spring_constant": 0.16
        },
        {
            "atom1": 10,
            "atom2": 11,
            "atom3": 12,
            "atom4": 44,
            "delta_constant": 0.0,
            "minima": 1,
            "spring_constant": 0.25
        },
        {
            "atom1": 13,
            "atom2": 11,
            "atom3": 12,
            "atom4": 44,
            "delta_constant": 0.0,
            "minima": 3,
            "spring_constant": 0.16
        },
        {
            "atom1": 13,
            "atom2": 11,
            "atom3": 12,
            "atom4": 44,
            "delta_constant": 0.0,
            "minima": 1,
            "spring_constant": 0.25
        },
        {
            "atom1": 10,
            "atom2": 11,
            "atom3": 13,
            "atom4": 14,
            "delta_constant": 0.0,
            "minima": 3,
            "spring_constant": 0.156
        },
        {
            "atom1": 12,
            "atom2": 11,
            "atom3": 13,
            "atom4": 14,
            "delta_constant": 0.0,
            "minima": 3,
            "spring_constant": 0.156
        },
        {
            "atom1": 11,
            "atom2": 13,
            "atom3": 14,
            "atom4": 15,
            "delta_constant": 0.0,
            "minima": 3,
            "spring_constant": 0.156
        },
        {
            "atom1": 11,
            "atom2": 13,
            "atom3": 14,
            "atom4": 19,
            "delta_constant": 0.0,
            "minima": 3,
            "spring_constant": 0.156
        },
        {
            "atom1": 11,
            "atom2": 13,
            "atom3": 14,
            "atom4": 45,
            "delta_constant": 0.0,
            "minima": 3,
            "spring_constant": 0.156
        },
        {
            "atom1": 13,
            "atom2": 14,
            "atom3": 15,
            "atom4": 16,
            "delta_constant": 0.0,
            "minima": 3,
            "spring_constant": 0.156
        },
        {
            "atom1": 19,
            "atom2": 14,
            "atom3": 15,
            "atom4": 16,
            "delta_constant": 0.0,
            "minima": 3,
            "spring_constant": 0.156
        },
        {
            "atom1": 45,
            "atom2": 14,
            "atom3": 15,
            "atom4": 16,
            "delta_constant": 0.0,
            "minima": 3,
            "spring_constant": 0.156
        },
        {
            "atom1": 13,
            "atom2": 14,
            "atom3": 19,
            "atom4": 18,
            "delta_constant": 0.0,
            "minima": 3,
            "spring_constant": 0.156
        },
        {
            "atom1": 15,
            "atom2": 14,
            "atom3": 19,
            "atom4": 18,
            "delta_constant": 0.0,
            "minima": 3,
            "spring_constant": 0.156
        },
        {
            "atom1": 45,
            "atom2": 14,
            "atom3": 19,
            "atom4": 18,
            "delta_constant": 0.0,
            "minima": 3,
            "spring_constant": 0.156
        },
        {
            "atom1": 14,
            "atom2": 15,
            "atom3": 16,
            "atom4": 17,
            "delta_constant": 0.0,
            "minima": 3,
            "spring_constant": 0.156
        },
        {
            "atom1": 15,
            "atom2": 16,
            "atom3": 17,
            "atom4": 18,
            "delta_constant": 0.0,
            "minima": 3,
            "spring_constant": 0.18
        },
        {
            "atom1": 15,
            "atom2": 16,
            "atom3": 17,
            "atom4": 18,
            "delta_constant": 180.0,
            "minima": 2,
            "spring_constant": 0.25
        },
        {
            "atom1": 15,
            "atom2": 16,
            "atom3": 17,
            "atom4": 18,
            "delta_constant": 180.0,
            "minima": 1,
            "spring_constant": 0.2
        },
        {
            "atom1": 15,
            "atom2": 16,
            "atom3": 17,
            "atom4": 20,
            "delta_constant": 0.0,
            "minima": 3,
            "spring_constant": 0.156
        },
        {
            "atom1": 16,
            "atom2": 17,
            "atom3": 18,
            "atom4": 19,
            "delta_constant": 0.0,
            "minima": 3,
            "spring_constant": 0.18
        },
        {
            "atom1": 16,
            "atom2": 17,
            "atom3": 18,
            "atom4": 19,
            "delta_constant": 180.0,
            "minima": 2,
            "spring_constant": 0.25
        },
        {
            "atom1": 16,
            "atom2": 17,
            "atom3": 18,
            "atom4": 19,
            "delta_constant": 180.0,
            "minima": 1,
            "spring_constant": 0.2
        },
        {
            "atom1": 20,
            "atom2": 17,
            "atom3": 18,
            "atom4": 19,
            "delta_constant": 0.0,
            "minima": 3,
            "spring_constant": 0.156
        },
        {
            "atom1": 17,
            "atom2": 18,
            "atom3": 19,
            "atom4": 14,
            "delta_constant": 0.0,
            "minima": 3,
            "spring_constant": 0.156
        },
        {
            "atom1": 17,
            "atom2": 20,
            "atom3": 21,
            "atom4": 22,
            "delta_constant": 180.0,
            "minima": 2,
            "spring_constant": 4.0
        },
        {
            "atom1": 29,
            "atom2": 20,
            "atom3": 21,
            "atom4": 22,
            "delta_constant": 180.0,
            "minima": 2,
            "spring_constant": 4.0
        },
        {
            "atom1": 17,
            "atom2": 20,
            "atom3": 21,
            "atom4": 23,
            "delta_constant": 180.0,
            "minima": 2,
            "spring_constant": 4.0
        },
        {
            "atom1": 29,
            "atom2": 20,
            "atom3": 21,
            "atom4": 23,
            "delta_constant": 180.0,
            "minima": 2,
            "spring_constant": 4.0
        },
        {
            "atom1": 17,
            "atom2": 20,
            "atom3": 29,
            "atom4": 28,
            "delta_constant": 180.0,
            "minima": 2,
            "spring_constant": 4.0
        },
        {
            "atom1": 21,
            "atom2": 20,
            "atom3": 29,
            "atom4": 28,
            "delta_constant": 180.0,
            "minima": 2,
            "spring_constant": 4.0
        },
        {
            "atom1": 20,
            "atom2": 21,
            "atom3": 23,
            "atom4": 27,
            "delta_constant": 180.0,
            "minima": 2,
            "spring_constant": 4.0
        },
        {
            "atom1": 22,
            "atom2": 21,
            "atom3": 23,
            "atom4": 27,
            "delta_constant": 180.0,
            "minima": 2,
            "spring_constant": 4.0
        },
        {
            "atom1": 20,
            "atom2": 21,
            "atom3": 23,
            "atom4": 28,
            "delta_constant": 180.0,
            "minima": 2,
            "spring_constant": 4.0
        },
        {
            "atom1": 22,
            "atom2": 21,
            "atom3": 23,
            "atom4": 28,
            "delta_constant": 180.0,
            "minima": 2,
            "spring_constant": 4.0
        },
        {
            "atom1": 21,
            "atom2": 23,
            "atom3": 27,
            "atom4": 26,
            "delta_constant": 180.0,
            "minima": 2,
            "spring_constant": 6.65
        },
        {
            "atom1": 28,
            "atom2": 23,
            "atom3": 27,
            "atom4": 26,
            "delta_constant": 180.0,
            "minima": 2,
            "spring_constant": 6.65
        },
        {
            "atom1": 21,
            "atom2": 23,
            "atom3": 28,
            "atom4": 29,
            "delta_constant": 180.0,
            "minima": 2,
            "spring_constant": 1.7
        },
        {
            "atom1": 27,
            "atom2": 23,
            "atom3": 28,
            "atom4": 29,
            "delta_constant": 180.0,
            "minima": 2,
            "spring_constant": 1.7
        },
        {
            "atom1": 21,
            "atom2": 23,
            "atom3": 28,
            "atom4": 47,
            "delta_constant": 180.0,
            "minima": 2,
            "spring_constant": 1.7
        },
        {
            "atom1": 27,
            "atom2": 23,
            "atom3": 28,
            "atom4": 47,
            "delta_constant": 180.0,
            "minima": 2,
            "spring_constant": 1.7
        },
        {
            "atom1": 22,
            "atom2": 24,
            "atom3": 25,
            "atom4": 46,
            "delta_constant": 0.0,
            "minima": 2,
            "spring_constant": 1.5
        },
        {
            "atom1": 26,
            "atom2": 24,
            "atom3": 25,
            "atom4": 46,
            "delta_constant": 0.0,
            "minima": 2,
            "spring_constant": 1.5
        },
        {
            "atom1": 22,
            "atom2": 24,
            "atom3": 26,
            "atom4": 27,
            "delta_constant": 180.0,
            "minima": 2,
            "spring_constant": 0.675
        },
        {
            "atom1": 25,
            "atom2": 24,
            "atom3": 26,
            "atom4": 27,
            "delta_constant": 180.0,
            "minima": 2,
            "spring_constant": 0.675
        },
        {
            "atom1": 24,
            "atom2": 26,
            "atom3": 27,
            "atom4": 23,
            "delta_constant": 180.0,
            "minima": 2,
            "spring_constant": 6.65
        },
        {
            "atom1": 23,
            "atom2": 28,
            "atom3": 29,
            "atom4": 20,
            "delta_constant": 180.0,
            "minima": 2,
            "spring_constant": 1.7
        },
        {
            "atom1": 47,
            "atom2": 28,
            "atom3": 29,
            "atom4": 20,
            "delta_constant": 180.0,
            "minima": 2,
            "spring_constant": 1.7
        },
        {
            "atom1": 1,
            "atom2": 30,
            "atom3": 31,
            "atom4": 32,
            "delta_constant": 180.0,
            "minima": 2,
            "spring_constant": 3.625
        },
        {
            "atom1": 35,
            "atom2": 30,
            "atom3": 31,
            "atom4": 32,
            "delta_constant": 180.0,
            "minima": 2,
            "spring_constant": 3.625
        },
        {
            "atom1": 1,
            "atom2": 30,
            "atom3": 35,
            "atom4": 34,
            "delta_constant": 180.0,
            "minima": 2,
            "spring_constant": 3.625
        },
        {
            "atom1": 31,
            "atom2": 30,
            "atom3": 35,
            "atom4": 34,
            "delta_constant": 180.0,
            "minima": 2,
            "spring_constant": 3.625
        },
        {
            "atom1": 30,
            "atom2": 31,
            "atom3": 32,
            "atom4": 33,
            "delta_constant": 180.0,
            "minima": 2,
            "spring_constant": 3.625
        },
        {
            "atom1": 31,
            "atom2": 32,
            "atom3": 33,
            "atom4": 34,
            "delta_constant": 180.0,
            "minima": 2,
            "spring_constant": 3.625
        },
        {
            "atom1": 31,
            "atom2": 32,
            "atom3": 33,
            "atom4": 36,
            "delta_constant": 180.0,
            "minima": 2,
            "spring_constant": 3.625
        },
        {
            "atom1": 32,
            "atom2": 33,
            "atom3": 34,
            "atom4": 35,
            "delta_constant": 180.0,
            "minima": 2,
            "spring_constant": 3.625
        },
        {
            "atom1": 36,
            "atom2": 33,
            "atom3": 34,
            "atom4": 35,
            "delta_constant": 180.0,
            "minima": 2,
            "spring_constant": 3.625
        },
        {
            "atom1": 33,
            "atom2": 34,
            "atom3": 35,
            "atom4": 30,
            "delta_constant": 180.0,
            "minima": 2,
            "spring_constant": 3.625
        }
    ],
    "version": 1
}