{
    "angles": [
        {
            "atom1": 1,
            "atom2": 2,
            "atom3": 3,
            "spring_constant": 63.21,
            "theta": 110.63
        },
        {
            "atom1": 2,
            "atom2": 3,
            "atom3": 4,
            "spring_constant": 63.21,
            "theta": 110.63
        },
        {
            "atom1": 3,
            "atom2": 4,
            "atom3": 5,
            "spring_constant": 66.39,
            "theta": 110.45
        },
        {
            "atom1": 4,
            "atom2": 5,
            "atom3": 6,
            "spring_constant": 64.56,
            "theta": 117.77
        },
        {
            "atom1": 4,
            "atom2": 5,
            "atom3": 37,
            "spring_constant": 46.46,
            "theta": 114.95
        },
        {
            "atom1": 5,
            "atom2": 6,
            "atom3": 7,
            "spring_constant": 69.34,
            "theta": 120.13
        },
        {
            "atom1": 5,
            "atom2": 6,
            "atom3": 11,
            "spring_constant": 73.2,
            "theta": 116.95
        },
        {
            "atom1": 6,
            "atom2": 5,
            "atom3": 37,
            "spring_constant": 49.08,
            "theta": 116.13
        },
        {
            "atom1": 6,
            "atom2": 7,
            "atom3": 8,
            "spring_constant": 67.18,
            "theta": 119.97
        },
        {
            "atom1": 6,
            "atom2": 11,
            "atom3": 10,
            "spring_constant": 68.59,
            "theta": 115.86
        },
        {
            "atom1": 7,
            "atom2": 6,
            "atom3": 11,
            "spring_constant": 69.16,
            "theta": 122.63
        },
        {
            "atom1": 7,
            "atom2": 8,
            "atom3": 9,
            "spring_constant": 67.18,
            "theta": 119.97
        },
        {
            "atom1": 7,
            "atom2": 8,
            "atom3": 14,
            "spring_constant": 64.64,
            "theta": 120.14
        },
        {
            "atom1": 8,
            "atom2": 9,
            "atom3": 10,
            "spring_constant": 67.18,
            "theta": 119.97
        },
        {
            "atom1": 8,
            "atom2": 14,
            "atom3": 15,
            "spring_constant": 68.67,
            "theta": 123.44
        },
        {
            "atom1": 8,
            "atom2": 14,
            "atom3": 16,
            "spring_constant": 68.47,
            "theta": 115.14
        },
        {
            "atom1": 9,
            "atom2": 8,
            "atom3": 14,
            "spring_constant": 64.64,
            "theta": 120.14
        },
        {
            "atom1": 9,
            "atom2": 10,
            "atom3": 11,
            "spring_constant": 69.16,
            "theta": 122.63
        },
        {
            "atom1": 9,
            "atom2": 10,
            "atom3": 12,
            "spring_constant": 69.79,
            "theta": 119.2
        },
        {
            "atom1": 10,
            "atom2": 12,
            "atom3": 13,
            "spring_constant": 62.27,
            "theta": 117.97
        },
        {
            "atom1": 11,
            "atom2": 10,
            "atom3": 12,
            "spring_constant": 72.54,
            "theta": 119.66
        },
        {
            "atom1": 14,
            "atom2": 16,
            "atom3": 17,
            "spring_constant": 63.92,
            "theta": 121.35
        },
        {
            "atom1": 14,
            "atom2": 16,
            "atom3": 38,
            "spring_constant": 49.21,
            "theta": 118.46
        },
        {
            "atom1": 15,
            "atom2": 14,
            "atom3": 16,
            "spring_constant": 75.83,
            "theta": 122.03
        },
        {
            "atom1": 16,
            "atom2": 17,
            "atom3": 18,
            "spring_constant": 65.85,
            "theta": 112.13
        },
        {
            "atom1": 16,
            "atom2": 17,
            "atom3": 25,
            "spring_constant": 65.85,
            "theta": 112.13
        },
        {
            "atom1": 17,
            "atom2": 16,
            "atom3": 38,
            "spring_constant": 46.04,
            "theta": 116.78
        },
        {
            "atom1": 17,
            "atom2": 18,
            "atom3": 19,
            "spring_constant": 63.25,
            "theta": 112.09
        },
        {
            "atom1": 17,
            "atom2": 25,
            "atom3": 26,
            "spring_constant": 63.21,
            "theta": 110.63
        },
        {
            "atom1": 17,
            "atom2": 25,
            "atom3": 36,
            "spring_constant": 67.72,
            "theta": 109.43
        },
        {
            "atom1": 18,
            "atom2": 17,
            "atom3": 25,
            "spring_constant": 63.21,
            "theta": 110.63
        },
        {
            "atom1": 18,
            "atom2": 19,
            "atom3": 20,
            "spring_constant": 63.84,
            "theta": 120.63
        },
        {
            "atom1": 18,
            "atom2": 19,
            "atom3": 24,
            "spring_constant": 63.84,
            "theta": 120.63
        },
        {
            "atom1": 19,
            "atom2": 20,
            "atom3": 21,
            "spring_constant": 67.18,
            "theta": 119.97
        },
        {
            "atom1": 19,
            "atom2": 24,
            "atom3": 23,
            "spring_constant": 67.18,
            "theta": 119.97
        },
        {
            "atom1": 20,
            "atom2": 19,
            "atom3": 24,
            "spring_constant": 67.18,
            "theta": 119.97
        },
        {
            "atom1": 20,
            "atom2": 21,
            "atom3": 22,
            "spring_constant": 67.18,
            "theta": 119.97
        },
        {
            "atom1": 21,
            "atom2": 22,
            "atom3": 23,
            "spring_constant": 67.18,
            "theta": 119.97
        },
        {
            "atom1": 22,
            "atom2": 23,
            "atom3": 24,
            "spring_constant": 67.18,
            "theta": 119.97
        },
        {
            "atom1": 25,
            "atom2": 26,
            "atom3": 27,
            "spring_constant": 63.21,
            "theta": 110.63
        },
        {
            "atom1": 25,
            "atom2": 36,
            "atom3": 40,
            "spring_constant": 47.09,
            "theta": 108.16
        },
        {
            "atom1": 26,
            "atom2": 25,
            "atom3": 36,
            "spring_constant": 67.72,
            "theta": 109.43
        },
        {
            "atom1": 26,
            "atom2": 27,
            "atom3": 28,
            "spring_constant": 63.21,
            "theta": 110.63
        },
        {
            "atom1": 26,
            "atom2": 27,
            "atom3": 29,
            "spring_constant": 63.79,
            "theta": 110.53
        },
        {
            "atom1": 27,
            "atom2": 29,
            "atom3": 30,
            "spring_constant": 68.03,
            "theta": 123.11
        },
        {
            "atom1": 27,
            "atom2": 29,
            "atom3": 31,
            "spring_constant": 67.86,
            "theta": 115.15
        },
        {
            "atom1": 28,
            "atom2": 27,
            "atom3": 29,
            "spring_constant": 63.79,
            "theta": 110.53
        },
        {
            "atom1": 29,
            "atom2": 31,
            "atom3": 32,
            "spring_constant": 63.92,
            "theta": 121.35
        },
        {
            "atom1": 29,
            "atom2": 31,
            "atom3": 39,
            "spring_constant": 49.21,
            "theta": 118.46
        },
        {
            "atom1": 30,
            "atom2": 29,
            "atom3": 31,
            "spring_constant": 75.83,
            "theta": 122.03
        },
        {
            "atom1": 31,
            "atom2": 32,
            "atom3": 33,
            "spring_constant": 65.85,
            "theta": 112.13
        },
        {
            "atom1": 32,
            "atom2": 31,
            "atom3": 39,
            "spring_constant": 46.04,
            "theta": 116.78
        },
        {
            "atom1": 32,
            "atom2": 33,
            "atom3": 34,
            "spring_constant": 63.21,
            "theta": 110.63
        },
        {
            "atom1": 33,
            "atom2": 34,
            "atom3": 35,
            "spring_constant": 63.21,
            "theta": 110.63
        }
    ],
    "atoms": [
        {
            "ace_volume": 40.947,
            "acp_type": -1,
            "charge": 0.008999,
            "element": "C",
            "eps": -0.1811,
            "eps03": -0.1,
            "ftype_index": 1,
            "ftype_name": "CH3E",
            "name": "C1",
            "radius": 2.165,
            "radius03": 1.76,
            "residue": "1",
            "segment": "X",
            "sybyl_type": "C.3",
            "x": 29.417,
            "y": 53.84,
            "z": 87.304
        },
        {
            "ace_volume": 35.356,
            "acp_type": -1,
            "charge": 0.01,
            "element": "C",
            "eps": -0.1142,
            "eps03": -0.1,
            "ftype_index": 2,
            "ftype_name": "CH2E",
            "name": "C2",
            "radius": 2.235,
            "radius03": 1.76,
            "residue": "1",
            "segment": "X",
            "sybyl_type": "C.3",
            "x": 30.424,
            "y": 54.753,
            "z": 87.986
        },
        {
            "ace_volume": 35.356,
            "acp_type": -1,
            "charge": 0.008,
            "element": "C",
            "eps": -0.1142,
            "eps03": -0.1,
            "ftype_index": 2,
            "ftype_name": "CH2E",
            "name": "C3",
            "radius": 2.235,
            "radius03": 1.76,
            "residue": "1",
            "segment": "X",
            "sybyl_type": "C.3",
            "x": 30.308,
            "y": 56.22,
            "z": 87.558
        },
        {
            "ace_volume": 35.356,
            "acp_type": -1,
            "charge": 0.2772,
            "element": "C",
            "eps": -0.1142,
            "eps03": -0.1,
            "ftype_index": 2,
            "ftype_name": "CH2E",
            "name": "C4",
            "radius": 2.235,
            "radius03": 1.76,
            "residue": "1",
            "segment": "X",
            "sybyl_type": "C.3",
            "x": 28.971,
            "y": 56.884,
            "z": 87.897
        },
        {
            "ace_volume": 1.708,
            "acp_type": -1,
            "charge": -0.8339,
            "element": "N",
            "eps": -0.09,
            "eps03": -0.1,
            "ftype_index": 3,
            "ftype_name": "NH1",
            "name": "N1",
            "radius": 1.83,
            "radius03": 1.63,
            "residue": "1",
            "segment": "X",
            "sybyl_type": "N.3",
            "x": 28.774,
            "y": 56.908,
            "z": 89.346
        },
        {
            "ace_volume": 12.403,
            "acp_type": -1,
            "charge": 0.6682,
            "element": "C",
            "eps": -0.05,
            "eps03": -0.1,
            "ftype_index": 4,
            "ftype_name": "C6R",
            "name": "C5",
            "radius": 2.04,
            "radius03": 1.76,
            "residue": "1",
            "segment": "X",
            "sybyl_type": "C.ar",
            "x": 27.608,
            "y": 57.56,
            "z": 89.753
        },
        {
            "ace_volume": 18.583,
            "acp_type": -1,
            "charge": -0.1583,
            "element": "C",
            "eps": -0.0903,
            "eps03": -0.1,
            "ftype_index": 5,
            "ftype_name": "C6RE",
            "name": "C6",
            "radius": 1.99,
            "radius03": 1.99,
            "residue": "1",
            "segment": "X",
            "sybyl_type": "C.ar",
            "x": 26.354,
            "y": 57.144,
            "z": 89.337
        },
        {
            "ace_volume": 12.403,
            "acp_type": -1,
            "charge": -0.0466,
            "element": "C",
            "eps": -0.05,
            "eps03": -0.1,
            "ftype_index": 4,
            "ftype_name": "C6R",
            "name": "C7",
            "radius": 2.04,
            "radius03": 1.76,
            "residue": "1",
            "segment": "X",
            "sybyl_type": "C.ar",
            "x": 25.235,
            "y": 57.848,
            "z": 89.782
        },
        {
            "ace_volume": 18.583,
            "acp_type": -1,
            "charge": -0.0873,
            "element": "C",
            "eps": -0.0903,
            "eps03": -0.1,
            "ftype_index": 5,
            "ftype_name": "C6RE",
            "name": "C8",
            "radius": 1.99,
            "radius03": 1.99,
            "residue": "1",
            "segment": "X",
            "sybyl_type": "C.ar",
            "x": 25.393,
            "y": 58.95,
            "z": 90.611
        },
        {
            "ace_volume": 12.403,
            "acp_type": -1,
            "charge": 0.6606,
            "element": "C",
            "eps": -0.05,
            "eps03": -0.1,
            "ftype_index": 4,
            "ftype_name": "C6R",
            "name": "C9",
            "radius": 2.04,
            "radius03": 1.76,
            "residue": "1",
            "segment": "X",
            "sybyl_type": "C.ar",
            "x": 26.678,
            "y": 59.271,
            "z": 90.995
        },
        {
            "ace_volume": 1.879,
            "acp_type": -1,
            "charge": -0.781,
            "element": "N",
            "eps": -0.09,
            "eps03": -0.1,
            "ftype_index": 6,
            "ftype_name": "N6R",
            "hb_acceptor": true,
            "name": "N2",
            "radius": 1.83,
            "radius03": 1.63,
            "residue": "1",
            "segment": "X",
            "sybyl_type": "N.ar",
            "x": 27.779,
            "y": 58.597,
            "yeti_type": "N6_aromatic",
            "z": 90.593
        },
        {
            "ace_volume": 21.427,
            "acp_type": -1,
            "charge": -0.4451,
            "element": "O",
            "eps": -0.1591,
            "eps03": -0.2,
            "ftype_index": 7,
            "ftype_name": "OE",
            "hb_acceptor": true,
            "name": "O1",
            "radius": 1.6,
            "radius03": 1.36,
            "residue": "1",
            "segment": "X",
            "sybyl_type": "O.3",
            "x": 26.806,
            "y": 60.365,
            "z": 91.829
        },
        {
            "ace_volume": 40.947,
            "acp_type": -1,
            "charge": 0.276801,
            "element": "C",
            "eps": -0.1811,
            "eps03": -0.1,
            "ftype_index": 1,
            "ftype_name": "CH3E",
            "name": "C10",
            "radius": 2.165,
            "radius03": 1.76,
            "residue": "1",
            "segment": "X",
            "sybyl_type": "C.3",
            "x": 28.137,
            "y": 60.564,
            "z": 92.293
        },
        {
            "ace_volume": 12.403,
            "acp_type": -1,
            "charge": 0.6657,
            "element": "C",
            "eps": -0.141,
            "eps03": -0.141,
            "ftype_index": 8,
            "ftype_name": "C",
            "name": "C11",
            "radius": 1.87,
            "radius03": 1.87,
            "residue": "1",
            "segment": "X",
            "sybyl_type": "C.2",
            "x": 23.875,
            "y": 57.465,
            "z": 89.34
        },
        {
            "ace_volume": 14.375,
            "acp_type": -1,
            "charge": -0.5951,
            "element": "O",
            "eps": -0.1591,
            "eps03": -0.2,
            "ftype_index": 9,
            "ftype_name": "O",
            "hb_acceptor": true,
            "name": "O2",
            "radius": 1.55,
            "radius03": 1.36,
            "residue": "1",
            "segment": "X",
            "sybyl_type": "O.2",
            "x": 23.024,
            "y": 58.324,
            "yeti_type": "carbonyl",
            "z": 89.144
        },
        {
            "ace_volume": 1.879,
            "acp_type": -1,
            "charge": -0.5549,
            "element": "N",
            "eps": -0.09,
            "eps03": -0.1,
            "ftype_index": 10,
            "ftype_name": "NP",
            "name": "N3",
            "radius": 1.83,
            "radius03": 1.63,
            "residue": "1",
            "segment": "X",
            "sybyl_type": "N.am",
            "x": 23.662,
            "y": 56.117,
            "z": 89.187
        },
        {
            "ace_volume": 12.257,
            "acp_type": -1,
            "charge": 0.1514,
            "element": "C",
            "eps": -0.0486,
            "eps03": -0.1,
            "ftype_index": 11,
            "ftype_name": "CH1E",
            "name": "C12",
            "radius": 2.265,
            "radius03": 1.76,
            "residue": "1",
            "segment": "X",
            "sybyl_type": "C.3",
            "x": 22.426,
            "y": 55.563,
            "z": 88.635
        },
        {
            "ace_volume": 35.356,
            "acp_type": -1,
            "charge": 0.0843,
            "element": "C",
            "eps": -0.1142,
            "eps03": -0.1,
            "ftype_index": 2,
            "ftype_name": "CH2E",
            "name": "C13",
            "radius": 2.235,
            "radius03": 1.76,
            "residue": "1",
            "segment": "X",
            "sybyl_type": "C.3",
            "x": 22.767,
            "y": 54.441,
            "z": 87.623
        },
        {
            "ace_volume": 12.403,
            "acp_type": -1,
            "charge": -0.0833,
            "element": "C",
            "eps": -0.05,
            "eps03": -0.1,
            "ftype_index": 4,
            "ftype_name": "C6R",
            "name": "C14",
            "radius": 2.04,
            "radius03": 1.76,
            "residue": "1",
            "segment": "X",
            "sybyl_type": "C.ar",
            "x": 23.712,
            "y": 54.865,
            "z": 86.516
        },
        {
            "ace_volume": 18.583,
            "acp_type": -1,
            "charge": 0.005,
            "element": "C",
            "eps": -0.0903,
            "eps03": -0.1,
            "ftype_index": 5,
            "ftype_name": "C6RE",
            "name": "C15",
            "radius": 1.99,
            "radius03": 1.99,
            "residue": "1",
            "segment": "X",
            "sybyl_type": "C.ar",
            "x": 23.373,
            "y": 55.9,
            "z": 85.634
        },
        {
            "ace_volume": 18.583,
            "acp_type": -1,
            "charge": 0.0035,
            "element": "C",
            "eps": -0.0903,
            "eps03": -0.1,
            "ftype_index": 5,
            "ftype_name": "C6RE",
            "name": "C16",
            "radius": 1.99,
            "radius03": 1.99,
            "residue": "1",
            "segment": "X",
            "sybyl_type": "C.ar",
            "x": 24.257,
            "y": 56.287,
            "z": 84.624
        },
        {
            "ace_volume": 18.583,
            "acp_type": -1,
            "charge": -0.001,
            "element": "C",
            "eps": -0.0903,
            "eps03": -0.1,
            "ftype_index": 5,
            "ftype_name": "C6RE",
            "name": "C17",
            "radius": 1.99,
            "radius03": 1.99,
            "residue": "1",
            "segment": "X",
            "sybyl_type": "C.ar",
            "x": 25.483,
            "y": 55.641,
            "z": 84.48
        },
        {
            "ace_volume": 18.583,
            "acp_type": -1,
            "charge": 0.0035,
            "element": "C",
            "eps": -0.0903,
            "eps03": -0.1,
            "ftype_index": 5,
            "ftype_name": "C6RE",
            "name": "C18",
            "radius": 1.99,
            "radius03": 1.99,
            "residue": "1",
            "segment": "X",
            "sybyl_type": "C.ar",
            "x": 25.827,
            "y": 54.605,
            "z": 85.346
        },
        {
            "ace_volume": 18.583,
            "acp_type": -1,
            "charge": 0.005,
            "element": "C",
            "eps": -0.0903,
            "eps03": -0.1,
            "ftype_index": 5,
            "ftype_name": "C6RE",
            "name": "C19",
            "radius": 1.99,
            "radius03": 1.99,
            "residue": "1",
            "segment": "X",
            "sybyl_type": "C.ar",
            "x": 24.946,
            "y": 54.218,
            "z": 86.357
        },
        {
            "ace_volume": 12.257,
            "acp_type": -1,
            "charge": 0.2268,
            "element": "C",
            "eps": -0.0486,
            "eps03": -0.1,
            "ftype_index": 11,
            "ftype_name": "CH1E",
            "name": "C20",
            "radius": 2.265,
            "radius03": 1.76,
            "residue": "1",
            "segment": "X",
            "sybyl_type": "C.3",
            "x": 21.499,
            "y": 55.013,
            "z": 89.753
        },
        {
            "ace_volume": 35.356,
            "acp_type": -1,
            "charge": 0.023,
            "element": "C",
            "eps": -0.1142,
            "eps03": -0.1,
            "ftype_index": 2,
            "ftype_name": "CH2E",
            "name": "C21",
            "radius": 2.235,
            "radius03": 1.76,
            "residue": "1",
            "segment": "X",
            "sybyl_type": "C.3",
            "x": 20.986,
            "y": 56.116,
            "z": 90.702
        },
        {
            "ace_volume": 12.257,
            "acp_type": -1,
            "charge": -0.043,
            "element": "C",
            "eps": -0.0486,
            "eps03": -0.1,
            "ftype_index": 11,
            "ftype_name": "CH1E",
            "name": "C22",
            "radius": 2.265,
            "radius03": 1.76,
            "residue": "1",
            "segment": "X",
            "sybyl_type": "C.3",
            "x": 20.198,
            "y": 55.586,
            "z": 91.911
        },
        {
            "ace_volume": 40.947,
            "acp_type": -1,
            "charge": 0.030999,
            "element": "C",
            "eps": -0.1811,
            "eps03": -0.1,
            "ftype_index": 1,
            "ftype_name": "CH3E",
            "name": "C23",
            "radius": 2.165,
            "radius03": 1.76,
            "residue": "1",
            "segment": "X",
            "sybyl_type": "C.3",
            "x": 19.626,
            "y": 56.726,
            "z": 92.751
        },
        {
            "ace_volume": 12.403,
            "acp_type": -1,
            "charge": 0.6561,
            "element": "C",
            "eps": -0.141,
            "eps03": -0.141,
            "ftype_index": 8,
            "ftype_name": "C",
            "name": "C24",
            "radius": 1.87,
            "radius03": 1.87,
            "residue": "1",
            "segment": "X",
            "sybyl_type": "C.2",
            "x": 19.134,
            "y": 54.589,
            "z": 91.477
        },
        {
            "ace_volume": 14.375,
            "acp_type": -1,
            "charge": -0.6191,
            "element": "O",
            "eps": -0.1591,
            "eps03": -0.2,
            "ftype_index": 9,
            "ftype_name": "O",
            "hb_acceptor": true,
            "name": "O3",
            "radius": 1.55,
            "radius03": 1.36,
            "residue": "1",
            "segment": "X",
            "sybyl_type": "O.2",
            "x": 19.324,
            "y": 53.381,
            "yeti_type": "carbonyl",
            "z": 91.604
        },
        {
            "ace_volume": 1.879,
            "acp_type": -1,
            "charge": -0.5669,
            "element": "N",
            "eps": -0.09,
            "eps03": -0.1,
            "ftype_index": 10,
            "ftype_name": "NP",
            "name": "N4",
            "radius": 1.83,
            "radius03": 1.63,
            "residue": "1",
            "segment": "X",
            "sybyl_type": "N.am",
            "x": 18.035,
            "y": 55.117,
            "z": 90.841
        },
        {
            "ace_volume": 35.356,
            "acp_type": -1,
            "charge": 0.2074,
            "element": "C",
            "eps": -0.1142,
            "eps03": -0.1,
            "ftype_index": 2,
            "ftype_name": "CH2E",
            "name": "C25",
            "radius": 2.235,
            "radius03": 1.76,
            "residue": "1",
            "segment": "X",
            "sybyl_type": "C.3",
            "x": 16.928,
            "y": 54.282,
            "z": 90.417
        },
        {
            "ace_volume": 35.356,
            "acp_type": -1,
            "charge": -0.016,
            "element": "C",
            "eps": -0.1142,
            "eps03": -0.1,
            "ftype_index": 2,
            "ftype_name": "CH2E",
            "name": "C26",
            "radius": 2.235,
            "radius03": 1.76,
            "residue": "1",
            "segment": "X",
            "sybyl_type": "C.3",
            "x": 15.886,
            "y": 54.143,
            "z": 91.525
        },
        {
            "ace_volume": 35.356,
            "acp_type": -1,
            "charge": 0.005,
            "element": "C",
            "eps": -0.1142,
            "eps03": -0.1,
            "ftype_index": 2,
            "ftype_name": "CH2E",
            "name": "C27",
            "radius": 2.235,
            "radius03": 1.76,
            "residue": "1",
            "segment": "X",
            "sybyl_type": "C.3",
            "x": 14.769,
            "y": 53.181,
            "z": 91.123
        },
        {
            "ace_volume": 40.947,
            "acp_type": -1,
            "charge": 0.008999,
            "element": "C",
            "eps": -0.1811,
            "eps03": -0.1,
            "ftype_index": 1,
            "ftype_name": "CH3E",
            "name": "C28",
            "radius": 2.165,
            "radius03": 1.76,
            "residue": "1",
            "segment": "X",
            "sybyl_type": "C.3",
            "x": 13.684,
            "y": 53.111,
            "z": 92.185
        },
        {
            "ace_volume": 21.427,
            "acp_type": -1,
            "charge": -0.5938,
            "element": "O",
            "eps": -0.1521,
            "eps03": -0.2,
            "ftype_index": 12,
            "ftype_name": "OT",
            "hb_acceptor": true,
            "name": "O4",
            "radius": 1.55,
            "radius03": 1.48,
            "residue": "1",
            "segment": "X",
            "sybyl_type": "O.3",
            "x": 22.189,
            "y": 54.003,
            "yeti_type": "hydroxyl",
            "z": 90.496
        },
        {
            "ace_volume": 0.31,
            "acp_type": -1,
            "charge": 0.4158,
            "element": "H",
            "eps": -0.0498,
            "eps03": -0.0498,
            "ftype_index": 13,
            "ftype_name": "H",
            "hb_donor": true,
            "name": "H10",
            "radius": 0.8,
            "radius03": 0.8,
            "residue": "1",
            "segment": "X",
            "sybyl_type": "H",
            "x": 29.407,
            "y": 56.499,
            "z": 89.98
        },
        {
            "ace_volume": 0.31,
            "acp_type": -1,
            "charge": 0.3125,
            "element": "H",
            "eps": -0.0498,
            "eps03": -0.0498,
            "ftype_index": 13,
            "ftype_name": "H",
            "hb_donor": true,
            "name": "H16",
            "radius": 0.8,
            "radius03": 0.8,
            "residue": "1",
            "segment": "X",
            "sybyl_type": "H",
            "x": 24.374,
            "y": 55.494,
            "z": 89.462
        },
        {
            "ace_volume": 0.31,
            "acp_type": -1,
            "charge": 0.3105,
            "element": "H",
            "eps": -0.0498,
            "eps03": -0.0498,
            "ftype_index": 13,
            "ftype_name": "H",
            "hb_donor": true,
            "name": "H32",
            "radius": 0.8,
            "radius03": 0.8,
            "residue": "1",
            "segment": "X",
            "sybyl_type": "H",
            "x": 18.0,
            "y": 56.085,
            "z": 90.669
        },
        {
            "ace_volume": 0.44,
            "acp_type": -1,
            "charge": 0.399,
            "element": "H",
            "eps": -0.0498,
            "eps03": -0.0498,
            "ftype_index": 14,
            "ftype_name": "HO",
            "hb_donor": true,
            "name": "H42",
            "radius": 0.76,
            "radius03": 0.76,
            "residue": "1",
            "segment": "X",
            "sybyl_type": "H",
            "x": 22.968,
            "y": 54.392,
            "z": 90.924
        }
    ],
    "bonds": [
        {
            "atom1": 1,
            "atom2": 2,
            "length": 1.535,
            "sdf_type": 1,
            "spring_constant": 303.1
        },
        {
            "atom1": 2,
            "atom2": 3,
            "length": 1.535,
            "sdf_type": 1,
            "spring_constant": 303.1
        },
        {
            "atom1": 3,
            "atom2": 4,
            "length": 1.535,
            "sdf_type": 1,
            "spring_constant": 303.1
        },
        {
            "atom1": 4,
            "atom2": 5,
            "length": 1.458,
            "sdf_type": 1,
            "spring_constant": 332.7
        },
        {
            "atom1": 5,
            "atom2": 6,
            "length": 1.364,
            "sdf_type": 1,
            "spring_constant": 449.0
        },
        {
            "atom1": 5,
            "atom2": 37,
            "length": 1.014,
            "sdf_type": 1,
            "spring_constant": 401.2
        },
        {
            "atom1": 6,
            "atom2": 7,
            "length": 1.387,
            "sdf_type": 2,
            "spring_constant": 478.4
        },
        {
            "atom1": 6,
            "atom2": 11,
            "length": 1.342,
            "sdf_type": 1,
            "spring_constant": 483.1
        },
        {
            "atom1": 7,
            "atom2": 8,
            "length": 1.387,
            "sdf_type": 1,
            "spring_constant": 478.4
        },
        {
            "atom1": 8,
            "atom2": 9,
            "length": 1.387,
            "sdf_type": 2,
            "spring_constant": 478.4
        },
        {
            "atom1": 8,
            "atom2": 14,
            "length": 1.487,
            "sdf_type": 1,
            "spring_constant": 349.7
        },
        {
            "atom1": 9,
            "atom2": 10,
            "length": 1.387,
            "sdf_type": 1,
            "spring_constant": 478.4
        },
        {
            "atom1": 10,
            "atom2": 11,
            "length": 1.342,
            "sdf_type": 2,
            "spring_constant": 483.1
        },
        {
            "atom1": 10,
            "atom2": 12,
            "length": 1.373,
            "sdf_type": 1,
            "spring_constant": 372.4
        },
        {
            "atom1": 12,
            "atom2": 13,
            "length": 1.439,
            "sdf_type": 1,
            "spring_constant": 301.5
        },
        {
            "atom1": 14,
            "atom2": 15,
            "length": 1.214,
            "sdf_type": 2,
            "spring_constant": 648.0
        },
        {
            "atom1": 14,
            "atom2": 16,
            "length": 1.345,
            "sdf_type": 1,
            "spring_constant": 478.2
        },
        {
            "atom1": 16,
            "atom2": 17,
            "length": 1.46,
            "sdf_type": 1,
            "spring_constant": 330.6
        },
        {
            "atom1": 16,
            "atom2": 38,
            "length": 1.009,
            "sdf_type": 1,
            "spring_constant": 410.2
        },
        {
            "atom1": 17,
            "atom2": 18,
            "length": 1.535,
            "sdf_type": 1,
            "spring_constant": 303.1
        },
        {
            "atom1": 17,
            "atom2": 25,
            "length": 1.535,
            "sdf_type": 1,
            "spring_constant": 303.1
        },
        {
            "atom1": 18,
            "atom2": 19,
            "length": 1.513,
            "sdf_type": 1,
            "spring_constant": 323.5
        },
        {
            "atom1": 19,
            "atom2": 20,
            "length": 1.387,
            "sdf_type": 2,
            "spring_constant": 478.4
        },
        {
            "atom1": 19,
            "atom2": 24,
            "length": 1.387,
            "sdf_type": 1,
            "spring_constant": 478.4
        },
        {
            "atom1": 20,
            "atom2": 21,
            "length": 1.387,
            "sdf_type": 1,
            "spring_constant": 478.4
        },
        {
            "atom1": 21,
            "atom2": 22,
            "length": 1.387,
            "sdf_type": 2,
            "spring_constant": 478.4
        },
        {
            "atom1": 22,
            "atom2": 23,
            "length": 1.387,
            "sdf_type": 1,
            "spring_constant": 478.4
        },
        {
            "atom1": 23,
            "atom2": 24,
            "length": 1.387,
            "sdf_type": 2,
            "spring_constant": 478.4
        },
        {
            "atom1": 25,
            "atom2": 26,
            "length": 1.535,
            "sdf_type": 1,
            "spring_constant": 303.1
        },
        {
            "atom1": 25,
            "atom2": 36,
            "length": 1.426,
            "sdf_type": 1,
            "spring_constant": 314.1
        },
        {
            "atom1": 26,
            "atom2": 27,
            "length": 1.535,
            "sdf_type": 1,
            "spring_constant": 303.1
        },
        {
            "atom1": 27,
            "atom2": 28,
            "length": 1.535,
            "sdf_type": 1,
            "spring_constant": 303.1
        },
        {
            "atom1": 27,
            "atom2": 29,
            "length": 1.508,
            "sdf_type": 1,
            "spring_constant": 328.3
        },
        {
            "atom1": 29,
            "atom2": 30,
            "length": 1.214,
            "sdf_type": 2,
            "spring_constant": 648.0
        },
        {
            "atom1": 29,
            "atom2": 31,
            "length": 1.345,
            "sdf_type": 1,
            "spring_constant": 478.2
        },
        {
            "atom1": 31,
            "atom2": 32,
            "length": 1.46,
            "sdf_type": 1,
            "spring_constant": 330.6
        },
        {
            "atom1": 31,
            "atom2": 39,
            "length": 1.009,
            "sdf_type": 1,
            "spring_constant": 410.2
        },
        {
            "atom1": 32,
            "atom2": 33,
            "length": 1.535,
            "sdf_type": 1,
            "spring_constant": 303.1
        },
        {
            "atom1": 33,
            "atom2": 34,
            "length": 1.535,
            "sdf_type": 1,
            "spring_constant": 303.1
        },
        {
            "atom1": 34,
            "atom2": 35,
            "length": 1.535,
            "sdf_type": 1,
            "spring_constant": 303.1
        },
        {
            "atom1": 36,
            "atom2": 40,
            "length": 0.974,
            "sdf_type": 1,
            "spring_constant": 369.6
        }
    ],
    "impropers": [
        {
            "atom1": 4,
            "atom2": 6,
            "atom3": 5,
            "atom4": 37,
            "phi": 180.0,
            "spring_constant": 110.00000000000001
        },
        {
            "atom1": 7,
            "atom2": 11,
            "atom3": 6,
            "atom4": 5,
            "phi": 180.0,
            "spring_constant": 110.00000000000001
        },
        {
            "atom1": 14,
            "atom2": 9,
            "atom3": 8,
            "atom4": 7,
            "phi": 180.0,
            "spring_constant": 110.00000000000001
        },
        {
            "atom1": 9,
            "atom2": 11,
            "atom3": 10,
            "atom4": 12,
            "phi": 180.0,
            "spring_constant": 110.00000000000001
        },
        {
            "atom1": 8,
            "atom2": 16,
            "atom3": 14,
            "atom4": 15,
            "phi": 180.0,
            "spring_constant": 1050.0
        },
        {
            "atom1": 14,
            "atom2": 17,
            "atom3": 16,
            "atom4": 38,
            "phi": 180.0,
            "spring_constant": 110.00000000000001
        },
        {
            "atom1": 18,
            "atom2": 20,
            "atom3": 19,
            "atom4": 24,
            "phi": 180.0,
            "spring_constant": 110.00000000000001
        },
        {
            "atom1": 27,
            "atom2": 31,
            "atom3": 29,
            "atom4": 30,
            "phi": 180.0,
            "spring_constant": 1050.0
        },
        {
            "atom1": 29,
            "atom2": 32,
            "atom3": 31,
            "atom4": 39,
            "phi": 180.0,
            "spring_constant": 110.00000000000001
        }
    ],
    "torsions": [
        {
            "atom1": 1,
            "atom2": 2,
            "atom3": 3,
            "atom4": 4,
            "delta_constant": 0.0,
            "minima": 3,
            "spring_constant": 0.18
        },
        {
            "atom1": 1,
            "atom2": 2,
            "atom3": 3,
            "atom4": 4,
            "delta_constant": 180.0,
            "minima": 2,
            "spring_constant": 0.25
        },
        {
            "atom1": 1,
            "atom2": 2,
            "atom3": 3,
            "atom4": 4,
            "delta_constant": 180.0,
            "minima": 1,
            "spring_constant": 0.2
        },
        {
            "atom1": 2,
            "atom2": 3,
            "atom3": 4,
            "atom4": 5,
            "delta_constant": 0.0,
            "minima": 3,
            "spring_constant": 0.156
        },
        {
            "atom1": 4,
            "atom2": 5,
            "atom3": 6,
            "atom4": 7,
            "delta_constant": 180.0,
            "minima": 2,
            "spring_constant": 1.05
        },
        {
            "atom1": 37,
            "atom2": 5,
            "atom3": 6,
            "atom4": 7,
            "delta_constant": 180.0,
            "minima": 2,
            "spring_constant": 1.05
        },
        {
            "atom1": 4,
            "atom2": 5,
            "atom3": 6,
            "atom4": 11,
            "delta_constant": 180.0,
            "minima": 2,
            "spring_constant": 1.05
        },
        {
            "atom1": 37,
            "atom2": 5,
            "atom3": 6,
            "atom4": 11,
            "delta_constant": 180.0,
            "minima": 2,
            "spring_constant": 1.05
        },
        {
            "atom1": 5,
            "atom2": 6,
            "atom3": 7,
            "atom4": 8,
            "delta_constant": 180.0,
            "minima": 2,
            "spring_constant": 3.625
        },
        {
            "atom1": 11,
            "atom2": 6,
            "atom3": 7,
            "atom4": 8,
            "delta_constant": 180.0,
            "minima": 2,
            "spring_constant": 3.625
        },
        {
            "atom1": 5,
            "atom2": 6,
            "atom3": 11,
            "atom4": 10,
            "delta_constant": 180.0,
            "minima": 2,
            "spring_constant": 4.8
        },
        {
            "atom1": 7,
            "atom2": 6,
            "atom3": 11,
            "atom4": 10,
            "delta_constant": 180.0,
            "minima": 2,
            "spring_constant": 4.8
        },
        {
            "atom1": 6,
            "atom2": 7,
            "atom3": 8,
            "atom4": 9,
            "delta_constant": 180.0,
            "minima": 2,
            "spring_constant": 3.625
        },
        {
            "atom1": 6,
            "atom2": 7,
            "atom3": 8,
            "atom4": 14,
            "delta_constant": 180.0,
            "minima": 2,
            "spring_constant": 3.625
        },
        {
            "atom1": 7,
            "atom2": 8,
            "atom3": 9,
            "atom4": 10,
            "delta_constant": 180.0,
            "minima": 2,
            "spring_constant": 3.625
        },
        {
            "atom1": 14,
            "atom2": 8,
            "atom3": 9,
            "atom4": 10,
            "delta_constant": 180.0,
            "minima": 2,
            "spring_constant": 3.625
        },
        {
            "atom1": 7,
            "atom2": 8,
            "atom3": 14,
            "atom4": 15,
            "delta_constant": 180.0,
            "minima": 2,
            "spring_constant": 1.0
        },
        {
            "atom1": 9,
            "atom2": 8,
            "atom3": 14,
            "atom4": 15,
            "delta_constant": 180.0,
            "minima": 2,
            "spring_constant": 1.0
        },
        {
            "atom1": 7,
            "atom2": 8,
            "atom3": 14,
            "atom4": 16,
            "delta_constant": 180.0,
            "minima": 2,
            "spring_constant": 1.0
        },
        {
            "atom1": 9,
            "atom2": 8,
            "atom3": 14,
            "atom4": 16,
            "delta_constant": 180.0,
            "minima": 2,
            "spring_constant": 1.0
        },
        {
            "atom1": 8,
            "atom2": 9,
            "atom3": 10,
            "atom4": 11,
            "delta_constant": 180.0,
            "minima": 2,
            "spring_constant": 3.625
        },
        {
            "atom1": 8,
            "atom2": 9,
            "atom3": 10,
            "atom4": 12,
            "delta_constant": 180.0,
            "minima": 2,
            "spring_constant": 3.625
        },
        {
            "atom1": 9,
            "atom2": 10,
            "atom3": 11,
            "atom4": 6,
            "delta_constant": 180.0,
            "minima": 2,
            "spring_constant": 4.8
        },
        {
            "atom1": 12,
            "atom2": 10,
            "atom3": 11,
            "atom4": 6,
            "delta_constant": 180.0,
            "minima": 2,
            "spring_constant": 4.8
        },
        {
            "atom1": 9,
            "atom2": 10,
            "atom3": 12,
            "atom4": 13,
            "delta_constant": 180.0,
            "minima": 2,
            "spring_constant": 0.9
        },
        {
            "atom1": 11,
            "atom2": 10,
            "atom3": 12,
            "atom4": 13,
            "delta_constant": 180.0,
            "minima": 2,
            "spring_constant": 0.9
        },
        {
            "atom1": 8,
            "atom2": 14,
            "atom3": 16,
            "atom4": 17,
            "delta_constant": 180.0,
            "minima": 2,
            "spring_constant": 2.5
        },
        {
            "atom1": 15,
            "atom2": 14,
            "atom3": 16,
            "atom4": 17,
            "delta_constant": 180.0,
            "minima": 2,
            "spring_constant": 2.5
        },
        {
            "atom1": 8,
            "atom2": 14,
            "atom3": 16,
            "atom4": 38,
            "delta_constant": 180.0,
            "minima": 2,
            "spring_constant": 2.5
        },
        {
            "atom1": 15,
            "atom2": 14,
            "atom3": 16,
            "atom4": 38,
            "delta_constant": 180.0,
            "minima": 2,
            "spring_constant": 2.5
        },
        {
            "atom1": 15,
            "atom2": 14,
            "atom3": 16,
            "atom4": 38,
            "delta_constant": 0.0,
            "minima": 1,
            "spring_constant": 2.0
        },
        {
            "atom1": 14,
            "atom2": 16,
            "atom3": 17,
            "atom4": 18,
            "delta_constant": 180.0,
            "minima": 4,
            "spring_constant": 0.5
        },
        {
            "atom1": 14,
            "atom2": 16,
            "atom3": 17,
            "atom4": 18,
            "delta_constant": 180.0,
            "minima": 3,
            "spring_constant": 0.15
        },
        {
            "atom1": 14,
            "atom2": 16,
            "atom3": 17,
            "atom4": 18,
            "delta_constant": 0.0,
            "minima": 1,
            "spring_constant": 0.53
        },
        {
            "atom1": 14,
            "atom2": 16,
            "atom3": 17,
            "atom4": 25,
            "delta_constant": 180.0,
            "minima": 4,
            "spring_constant": 0.5
        },
        {
            "atom1": 14,
            "atom2": 16,
            "atom3": 17,
            "atom4": 25,
            "delta_constant": 180.0,
            "minima": 3,
            "spring_constant": 0.15
        },
        {
            "atom1": 14,
            "atom2": 16,
            "atom3": 17,
            "atom4": 25,
            "delta_constant": 0.0,
            "minima": 1,
            "spring_constant": 0.53
        },
        {
            "atom1": 16,
            "atom2": 17,
            "atom3": 18,
            "atom4": 19,
            "delta_constant": 0.0,
            "minima": 3,
            "spring_constant": 0.156
        },
        {
            "atom1": 25,
            "atom2": 17,
            "atom3": 18,
            "atom4": 19,
            "delta_constant": 0.0,
            "minima": 3,
            "spring_constant": 0.156
        },
        {
            "atom1": 16,
            "atom2": 17,
            "atom3": 25,
            "atom4": 26,
            "delta_constant": 0.0,
            "minima": 3,
            "spring_constant": 0.156
        },
        {
            "atom1": 18,
            "atom2": 17,
            "atom3": 25,
            "atom4": 26,
            "delta_constant": 0.0,
            "minima": 3,
            "spring_constant": 0.18
        },
        {
            "atom1": 18,
            "atom2": 17,
            "atom3": 25,
            "atom4": 26,
            "delta_constant": 180.0,
            "minima": 2,
            "spring_constant": 0.25
        },
        {
            "atom1": 18,
            "atom2": 17,
            "atom3": 25,
            "atom4": 26,
            "delta_constant": 180.0,
            "minima": 1,
            "spring_constant": 0.2
        },
        {
            "atom1": 16,
            "atom2": 17,
            "atom3": 25,
            "atom4": 36,
            "delta_constant": 0.0,
            "minima": 3,
            "spring_constant": 0.156
        },
        {
            "atom1": 18,
            "atom2": 17,
            "atom3": 25,
            "atom4": 36,
            "delta_constant": 0.0,
            "minima": 3,
            "spring_constant": 0.156
        },
        {
            "atom1": 18,
            "atom2": 19,
            "atom3": 20,
            "atom4": 21,
            "delta_constant": 180.0,
            "minima": 2,
            "spring_constant": 3.625
        },
        {
            "atom1": 24,
            "atom2": 19,
            "atom3": 20,
            "atom4": 21,
            "delta_constant": 180.0,
            "minima": 2,
            "spring_constant": 3.625
        },
        {
            "atom1": 18,
            "atom2": 19,
            "atom3": 24,
            "atom4": 23,
            "delta_constant": 180.0,
            "minima": 2,
            "spring_constant": 3.625
        },
        {
            "atom1": 20,
            "atom2": 19,
            "atom3": 24,
            "atom4": 23,
            "delta_constant": 180.0,
            "minima": 2,
            "spring_constant": 3.625
        },
        {
            "atom1": 19,
            "atom2": 20,
            "atom3": 21,
            "atom4": 22,
            "delta_constant": 180.0,
            "minima": 2,
            "spring_constant": 3.625
        },
        {
            "atom1": 20,
            "atom2": 21,
            "atom3": 22,
            "atom4": 23,
            "delta_constant": 180.0,
            "minima": 2,
            "spring_constant": 3.625
        },
        {
            "atom1": 21,
            "atom2": 22,
            "atom3": 23,
            "atom4": 24,
            "delta_constant": 180.0,
            "minima": 2,
            "spring_constant": 3.625
        },
        {
            "atom1": 22,
            "atom2": 23,
            "atom3": 24,
            "atom4": 19,
            "delta_constant": 180.0,
            "minima": 2,
            "spring_constant": 3.625
        },
        {
            "atom1": 17,
            "atom2": 25,
            "atom3": 26,
            "atom4": 27,
            "delta_constant": 0.0,
            "minima": 3,
            "spring_constant": 0.18
        },
        {
            "atom1": 17,
            "atom2": 25,
            "atom3": 26,
            "atom4": 27,
            "delta_constant": 180.0,
            "minima": 2,
            "spring_constant": 0.25
        },
        {
            "atom1": 17,
            "atom2": 25,
            "atom3": 26,
            "atom4": 27,
            "delta_constant": 180.0,
            "minima": 1,
            "spring_constant": 0.2
        },
        {
            "atom1": 36,
            "atom2": 25,
            "atom3": 26,
            "atom4": 27,
            "delta_constant": 0.0,
            "minima": 3,
            "spring_constant": 0.156
        },
        {
            "atom1": 17,
            "atom2": 25,
            "atom3": 36,
            "atom4": 40,
            "delta_constant": 0.0,
            "minima": 3,
            "spring_constant": 0.16
        },
        {
            "atom1": 17,
            "atom2": 25,
            "atom3": 36,
            "atom4": 40,
            "delta_constant": 0.0,
            "minima": 1,
            "spring_constant": 0.25
        },
        {
            "atom1": 26,
            "atom2": 25,
            "atom3": 36,
            "atom4": 40,
            "delta_constant": 0.0,
            "minima": 3,
            "spring_constant": 0.16
        },
        {
            "atom1": 26,
            "atom2": 25,
            "atom3": 36,
            "atom4": 40,
            "delta_constant": 0.0,
            "minima": 1,
            "spring_constant": 0.25
        },
        {
            "atom1": 25,
            "atom2": 26,
            "atom3": 27,
            "atom4": 28,
            "delta_constant": 0.0,
            "minima": 3,
            "spring_constant": 0.18
        },
        {
            "atom1": 25,
            "atom2": 26,
            "atom3": 27,
            "atom4": 28,
            "delta_constant": 180.0,
            "minima": 2,
            "spring_constant": 0.25
        },
        {
            "atom1": 25,
            "atom2": 26,
            "atom3": 27,
            "atom4": 28,
            "delta_constant": 180.0,
            "minima": 1,
            "spring_constant": 0.2
        },
        {
            "atom1": 25,
            "atom2": 26,
            "atom3": 27,
            "atom4": 29,
            "delta_constant": 0.0,
            "minima": 3,
            "spring_constant": 0.156
        },
        {
            "atom1": 26,
            "atom2": 27,
            "atom3": 29,
            "atom4": 31,
            "delta_constant": 0.0,
            "minima": 4,
            "spring_constant": 0.1
        },
        {
            "atom1": 26,
            "atom2": 27,
            "atom3": 29,
            "atom4": 31,
            "delta_constant": 0.0,
            "minima": 2,
            "spring_constant": 0.07
        },
        {
            "atom1": 28,
            "atom2": 27,
            "atom3": 29,
            "atom4": 31,
            "delta_constant": 0.0,
            "minima": 4,
            "spring_constant": 0.1
        },
        {
            "atom1": 28,
            "atom2": 27,
            "atom3": 29,
            "atom4": 31,
            "delta_constant": 0.0,
            "minima": 2,
            "spring_constant": 0.07
        },
        {
            "atom1": 27,
            "atom2": 29,
            "atom3": 31,
            "atom4": 32,
            "delta_constant": 180.0,
            "minima": 2,
            "spring_constant": 2.5
        },
        {
            "atom1": 30,
            "atom2": 29,
            "atom3": 31,
            "atom4": 32,
            "delta_constant": 180.0,
            "minima": 2,
            "spring_constant": 2.5
        },
        {
            "atom1": 27,
            "atom2": 29,
            "atom3": 31,
            "atom4": 39,
            "delta_constant": 180.0,
            "minima": 2,
            "spring_constant": 2.5
        },
        {
            "atom1": 30,
            "atom2": 29,
            "atom3": 31,
            "atom4": 39,
            "delta_constant": 180.0,
            "minima": 2,
            "spring_constant": 2.5
        },
        {
            "atom1": 30,
            "atom2": 29,
            "atom3": 31,
            "atom4": 39,
            "delta_constant": 0.0,
            "minima": 1,
            "spring_constant": 2.0
        },
        {
            "atom1": 29,
            "atom2": 31,
            "atom3": 32,
            "atom4": 33,
            "delta_constant": 180.0,
            "minima": 4,
            "spring_constant": 0.5
        },
        {
            "atom1": 29,
            "atom2": 31,
            "atom3": 32,
            "atom4": 33,
            "delta_constant": 180.0,
            "minima": 3,
            "spring_constant": 0.15
        },
        {
            "atom1": 29,
            "atom2": 31,
            "atom3": 32,
            "atom4": 33,
            "delta_constant": 0.0,
            "minima": 1,
            "spring_constant": 0.53
        },
        {
            "atom1": 31,
            "atom2": 32,
            "atom3": 33,
            "atom4": 34,
            "delta_constant": 0.0,
            "minima": 3,
            "spring_constant": 0.156
        },
        {
            "atom1": 32,
            "atom2": 33,
            "atom3": 34,
            "atom4": 35,
            "delta_constant": 0.0,
            "minima": 3,
            "spring_constant": 0.18
        },
        {
            "atom1": 32,
            "atom2": 33,
            "atom3": 34,
            "atom4": 35,
            "delta_constant": 180.0,
            "minima": 2,
            "spring_constant": 0.25
        },
        {
            "atom1": 32,
            "atom2": 33,
            "atom3": 34,
            "atom4": 35,
            "delta_constant": 180.0,
            "minima": 1,
            "spring_constant": 0.2
        }
    ],
    "version": 1
}